<?xml version="1.0" encoding="UTF-8" standalone="no"?>
<!-- Created with Inkscape (http://www.inkscape.org/) -->

<svg
   xmlns:dc="http://purl.org/dc/elements/1.1/"
   xmlns:cc="http://creativecommons.org/ns#"
   xmlns:rdf="http://www.w3.org/1999/02/22-rdf-syntax-ns#"
   xmlns:svg="http://www.w3.org/2000/svg"
   xmlns="http://www.w3.org/2000/svg"
   xmlns:sodipodi="http://sodipodi.sourceforge.net/DTD/sodipodi-0.dtd"
   xmlns:inkscape="http://www.inkscape.org/namespaces/inkscape"
   width="274.29196"
   height="529.57611"
   id="svg2"
   version="1.1"
   inkscape:version="0.48.1 r9760"
   sodipodi:docname="rectangles.svg">
  <defs
     id="defs4" />
  <sodipodi:namedview
     id="base"
     pagecolor="#ffffff"
     bordercolor="#666666"
     borderopacity="1.0"
     inkscape:pageopacity="0.0"
     inkscape:pageshadow="2"
     inkscape:zoom="0.6385157"
     inkscape:cx="43.87098"
     inkscape:cy="237.06809"
     inkscape:document-units="px"
     inkscape:current-layer="layer1"
     showgrid="false"
     fit-margin-top="0"
     fit-margin-left="0"
     fit-margin-right="0"
     fit-margin-bottom="0"
     inkscape:window-width="1280"
     inkscape:window-height="730"
     inkscape:window-x="0"
     inkscape:window-y="22"
     inkscape:window-maximized="1" />
  <metadata
     id="metadata7">
    <rdf:RDF>
      <cc:Work
         rdf:about="">
        <dc:format>image/svg+xml</dc:format>
        <dc:type
           rdf:resource="http://purl.org/dc/dcmitype/StillImage" />
        <dc:title></dc:title>
      </cc:Work>
    </rdf:RDF>
  </metadata>
  <g
     inkscape:label="Layer 1"
     inkscape:groupmode="layer"
     id="layer1"
     transform="translate(-625.28927,-65.511508)">
    <g
       id="g3933">
      <path
         id="path3115"
         transform="translate(625.29998,65.525121)"
         d="m 172.75,0 c -7.14636,0.08940637 -14.31788,0.6116365 -19.125,1.5 -24.86207,4.594539 -45.95722,15.621815 -63.90625,33.4375 -14.11044,14.0056 -24.35062,30.56649 -29.8125,48.25 -1.09591,3.54815 -4.52111,18.35472 -7.625,32.875 -34.97188,163.60141 -50.67886,238.41354 -51.625,246.125 -2.61157,21.2853 2.57639,47.71614 13.28125,67.75 14.27346,26.71238 37.20284,46.63564 65.6875,57.03125 5.0127,1.82941 58.09364,13.56392 141.8125,31.375 20.38174,4.33619 35.32459,7.50535 52.84375,11.21875 l 0,-13.125 C 200.94736,505.67839 112.6654,492.62787 108.75,491.875 105.725,491.29335 99.57539,489.53414 95.0625,487.9375 55.58015,473.96878 27.64442,441.63343 19.65625,400.65625 15.90226,381.39932 15.89969,381.45358 36.75,239.90625 47.19991,168.96449 56.19075,109.01499 56.71875,106.6875 66.78491,62.31537 102.97657,27.79047 148.8125,18.84375 c 3.5507,-0.693065 12.5125,-1.19802 19.9375,-1.125 10.31519,0.101446 28.12612,2.407986 105.53125,13.75 l 0,-13.25 C 231.50344,9.1256775 196.5995,1.8166913 191.75,1.03125 187.00304,0.262416 179.89636,-0.08940637 172.75,0 z m -14.53125,35.25 c -10.65673,0.104274 -15.49235,1.256719 -22.25,3.125 -40.78013,11.27445 -71.76899,44.58824 -79.625,85.59375 -0.89511,4.67215 -6.15406,64.04375 -11.6875,131.96875 -10.84923,133.17836 -10.99652,135.97595 -6.90625,152.875 10.02157,41.40435 42.18769,73.17297 83.34375,82.3125 6.60605,1.467 42.30039,4.76278 128.15625,11.8125 8.66286,0.71132 16.67793,1.36024 25.03125,2.03125 l 0,-10.9375 c -2.58665,-0.0419 -2.40961,-0.0514 -5.03125,-0.0937 -59.4,-0.96028 -112.5,-2.00301 -118,-2.3125 -38.4606,-2.16421 -72.1572,-25.2393 -89,-60.9375 -6.92954,-14.68712 -8.60052,-22.49745 -9.1875,-42.3125 -0.53985,-18.22441 2.28855,-225.85225 3.25,-238.40625 0.77094,-10.06656 2.73969,-19.03902 6.375,-29 13.37324,-36.64355 47.9539,-63.75799 86.5625,-67.875 5.26516,-0.561447 64.77916,0.03567 125.03125,0.9375 l 0,-10.9375 C 205.07508,37.442113 174.30491,35.0926 158.21875,35.25 z M 274.28125,63.5 C 212.21959,66.572631 145.65228,70.364275 139.84375,71.5625 118.61154,75.94245 102.94932,84.49467 87.625,100.03125 68.98449,118.92994 58.81535,143.39608 58.78125,169.5 58.7665,180.79386 69.36886,393.35694 70.375,401.9375 c 0.3547,3.025 1.72271,9.25626 3.03125,13.8125 10.59138,36.87853 40.09576,64.24772 77.34375,71.71875 3.575,0.71706 12.30258,1.3233 19.375,1.375 9.53568,0.0697 55.3646,-2.03756 104.15625,-4.53125 l 0,-9.125 c -98.48451,11.43357 -101.72088,11.24517 -119.8125,5.75 -31.40499,-9.53897 -56.49234,-35.77541 -64.59375,-67.5 -1.23869,-4.85066 -7.01401,-50.51605 -14.65625,-116 -13.922,-119.29324 -14.10028,-121.76048 -9.5,-139 5.02904,-18.84636 17.70134,-38.36074 32.6875,-50.34375 9.39063,-7.5088 24.83558,-15.2835 35.84375,-18.0625 4.72452,-1.1927 52.219,-7.20987 116,-14.65625 9.06799,-1.058681 16.2568,-1.877777 24.03125,-2.78125 l 0,-9.09375 z m 0,17.09375 c -10.72364,1.948961 -22.76521,4.165002 -36.53125,6.6875 -57.40403,10.51874 -104.53025,19.64598 -108.5,21 -23.69632,8.08249 -42.06883,24.67953 -52.90625,47.8125 -6.73731,14.3811 -8.0488,20.74269 -8,38.34375 l 0.03125,15 18.15625,98.6875 c 9.98181,54.27617 18.88288,101.52617 19.78125,105 8.35542,32.30864 36.39169,58.32607 70.4375,65.3125 3.575,0.73361 11.14537,1.35455 16.8125,1.40625 7.94915,0.0725 20.53729,-1.88044 80.71875,-12.78125 l 0,-7.84375 c -5.9752,1.46792 -11.05839,2.72408 -17.53125,4.3125 -48.29304,11.85096 -56.13532,12.49453 -76.46875,6.34375 -26.4638,-8.00519 -48.46988,-29.46658 -56.875,-55.4375 -0.89,-2.75 -12.24379,-47.75 -25.25,-100 l -23.65625,-95 0,-13.5 c -0.01061,-15.42167 1.86894,-24.37127 7.71875,-36.71875 8.79067,-18.55487 23.63975,-33.37522 41.96875,-41.84375 5.88603,-2.71951 28.65844,-8.73984 100.34375,-26.53125 18.77633,-4.660055 34.37533,-8.488263 49.75,-12.28125 l 0,-7.96875 z m 0,15.15625 c -54.87995,16.8953 -143.05348,44.96131 -148.21875,47.5625 -16.10584,8.11077 -28.27445,20.53279 -36.3125,37.125 -4.72383,9.75097 -7.21384,18.69264 -8.5,30.59375 -1.35452,12.53362 0.33513,18.93362 29.5,112.28125 15.37303,49.20425 29.04508,91.9303 30.375,94.9375 11.41319,25.80724 36.93272,44.33007 65.625,47.65625 7.85909,0.91107 18.38349,0.33062 26.5,-1.5 1.976,-0.44567 18.52338,-5.46839 41.03125,-12.40625 l 0,-7.625 c -19.59728,7.11521 -32.59803,11.63553 -35.15625,12.125 -18.44333,3.52879 -37.45402,0.13034 -54.09375,-9.6875 C 176.9252,442.02974 163.85643,428.78247 159,420.4375 153.30697,410.65497 93.12785,250.37826 91.0625,239.5 c -1.80887,-9.52743 -1.27241,-24.85242 1.21875,-34.0625 5.49645,-20.32089 20.73845,-38.77957 39.8125,-48.25 4.53275,-2.25054 95.77971,-36.90463 142.1875,-54.1875 l 0,-7.25 z m 0,14.53125 c -40.42424,17.22485 -134.30442,58.44187 -140.53125,61.9375 -3.025,1.69817 -9.32451,6.9405 -14.03125,11.65625 -10.1849,10.20441 -15.81501,20.14956 -19.0625,33.71875 -2.88316,12.04688 -2.32383,27.43075 1.40625,38.34375 3.70535,10.84064 65.91985,152.13031 69.875,158.6875 9.84064,16.31465 27.32226,28.7018 46.3125,32.84375 8.97552,1.95764 21.75767,1.77714 31.125,-0.46875 2.02473,-0.48544 11.57344,-4.35892 24.90625,-9.9375 l 0,-7.375 c -7.10432,3.36044 -12.30424,5.69848 -14.03125,6.25 -9.0103,2.87745 -25.21602,3.61114 -34.5,1.53125 -13.21658,-2.96091 -27.8736,-12.11026 -36.96875,-23.03125 -4.64483,-5.57728 -73.32994,-141.5535 -77.09375,-152.625 -3.3111,-9.73981 -3.77855,-25.07056 -1.09375,-35.6875 3.97452,-15.71708 12.28908,-28.58428 24.34375,-37.65625 6.49257,-4.88611 105.10564,-54.6297 139.34375,-70.65625 l 0,-7.53125 z m 0,15.5 c -21.00096,10.70251 -118.55559,64.67824 -127.8125,70.875 -22.91986,15.343 -33.28883,45.58315 -24.40625,71.125 2.40197,6.90687 66.34477,123.25856 73.8125,134.3125 7.95647,11.77738 23.37681,22.11152 37.875,25.375 9.33392,2.10103 22.6646,1.32173 32.1875,-1.875 1.07757,-0.36173 4.04205,-1.80289 8.34375,-4 l 0,-8.53125 c -2.03987,1.02685 -3.51764,1.67222 -4.46875,1.96875 -8.45756,2.63678 -21.72717,3.30346 -29.5625,1.5 -12.68721,-2.92023 -26.17123,-11.27767 -32.84375,-20.375 -5.14438,-7.01385 -69.54608,-112.88884 -72.3125,-118.875 -2.81321,-6.08742 -5.3125,-17.00608 -5.3125,-23.34375 0,-18.05703 10.55549,-37.54748 25.90625,-47.90625 9.6863,-6.53635 108.30996,-66.33264 114.0625,-69.15625 1.47529,-0.72414 2.99278,-1.35986 4.53125,-1.9375 l 0,-9.15625 z m 0,19.25 c -2.70651,0.7873 -5.33648,1.78528 -7.8125,3.03125 -2.32072,1.16782 -26.94375,17.03897 -54.71875,35.25 -33.49549,21.96174 -52.24069,34.85454 -55.6875,38.34375 -14.61359,14.79334 -19.05592,39.38656 -10.4375,57.78125 4.19847,8.961 66.83266,104.00197 72.78125,110.4375 7.5941,8.21574 17.61579,13.81091 28.84375,16.0625 8.48036,1.70059 18.34338,0.85675 27.03125,-2.25 l 0,-10.8125 c -0.48807,0.1601 -0.99116,0.33642 -1.4375,0.46875 -14.58601,4.3244 -32.39874,0.15187 -44.375,-10.40625 -4.76322,-4.19919 -64.05533,-87.78208 -69.875,-98.5 -10.32393,-19.01324 -6.34212,-42.82835 9.59375,-57.125 5.78201,-5.18725 85.97591,-61.6241 94.84375,-66.75 3.47348,-2.00779 7.27495,-3.45744 11.25,-4.375 l 0,-11.15625 z m 0,22.59375 c -3.28337,0.62937 -6.46151,1.65583 -9.40625,3.09375 -3.09398,1.51079 -24.0285,16.21875 -46.53125,32.71875 -34.41337,25.23339 -41.59638,30.93706 -45.25,35.875 -9.18259,12.41043 -11.04699,30.31515 -4.53125,43.625 4.03402,8.24037 59.58341,84.12442 65.65625,89.6875 5.19478,4.75874 11.72293,8.16958 19,9.9375 7.02932,1.70773 14.12547,1.5615 21.0625,-0.40625 l 0,-11.53125 c -1.9387,0.46119 -4.00955,0.72208 -6.625,0.875 -13.97712,0.81719 -24.58455,-4.21762 -34.125,-16.25 C 216.90704,334.28359 181.2995,286.06937 179.5,282.09375 c -1.66734,-3.68366 -2.10315,-6.71534 -2.15625,-14.65625 -0.0623,-9.31728 0.15209,-10.47065 3.125,-16.5 1.75799,-3.56537 5.13299,-8.3676 7.5,-10.65625 7.29245,-7.05101 71.94781,-55.44684 77.78125,-58.21875 3.14009,-1.4921 5.11599,-2.12934 8.53125,-2.40625 l 0,-12.03125 z m 0,24.03125 c -3.22935,0.26026 -5.29182,0.86846 -8.25,2.28125 -2.87906,1.375 -19.47744,13.52622 -36.875,26.96875 -33.82506,26.13552 -36.98026,29.27369 -39.46875,39.34375 -1.60857,6.50931 -0.70405,17.15336 1.9375,22.6875 1.18136,2.475 13.20283,18.77243 26.6875,36.21875 25.20334,32.60785 28.39116,35.94904 37.46875,39.125 5.3158,1.85983 12.44316,2.09319 18.5,0.75 l 0,-11.90625 c -7.77231,1.86489 -16.15299,0.34958 -23.09375,-4.3125 -4.89867,-3.29042 -45.36864,-55.47251 -48.15625,-62.09375 -3.84338,-9.12896 -2.23784,-20.70907 3.875,-28.125 3.02861,-3.67423 49.09302,-39.97163 56.90625,-44.84375 3.21801,-2.00666 6.81819,-3.37049 10.46875,-4 l 0,-12.09375 z m 0,24.28125 c -2.27311,0.31551 -4.43675,0.96462 -6.34375,1.9375 -4.53705,2.31463 -41.38331,30.21109 -47.375,35.875 -5.43664,5.13922 -8.1534,12.23168 -7.5,19.4375 0.28899,3.18704 1.4117,7.32125 2.53125,9.21875 3.82549,6.48372 35.38344,46.60646 38.5625,49.03125 1.74465,1.3307 4.26644,2.86405 5.625,3.40625 3.45941,1.38064 9.59443,1.39557 14.5,0.34375 l 0,-11.6875 c -3.89481,0.7453 -10.04657,0.36738 -13.03125,-0.96875 -4.15838,-1.86155 -7.38584,-5.5654 -21.78125,-24.9375 -13.8344,-18.61712 -15.61416,-22.55034 -13.625,-29.9375 0.6212,-2.30697 1.94225,-5.32105 2.9375,-6.71875 2.12045,-2.97789 35.39389,-28.39431 40.75,-31.125 1.49994,-0.76471 3.09682,-1.26057 4.75,-1.53125 l 0,-12.34375 z m -0.0313,24.5 c -0.56243,0.10627 -1.14296,0.25399 -1.6875,0.4375 -3.72982,1.25696 -28.10325,18.74371 -31.5,22.59375 -3.35275,3.80017 -4.47528,8.9771 -2.90625,13.53125 1.68775,4.89872 21.74687,32.21677 24.78125,33.75 1.27089,0.64217 4.82309,1.03281 7.875,0.875 1.35043,-0.0698 2.40384,-0.15476 3.46875,-0.40625 l 0,-12 c -1.29467,0.51849 -2.35484,0.72521 -3.40625,0.71875 -4.83757,-0.0297 -6.71112,-1.73974 -14.5,-13.25 -7.1076,-10.50349 -8.11279,-14.33519 -4.84375,-18.375 0.95027,-1.17433 6.07387,-5.11183 11.375,-8.75 4.90568,-3.36677 8.42334,-5.53847 11.375,-6.3125 l 0,-12.8125 c -0.0102,0.002 -0.0211,-0.002 -0.0313,0 z m 0.0313,24.71875 c -0.27272,0.0319 -0.52941,0.093 -0.78125,0.15625 -3.50225,0.87901 -11.14366,6.82513 -11.5625,9 -0.45584,2.367 5.81527,12.66364 8.28125,13.59375 1.07949,0.40711 2.70562,0.54475 3.59375,0.3125 0.14056,-0.0368 0.29285,-0.0832 0.46875,-0.15625 l 0,-22.90625 z"
         style="fill:#fd1717"
         inkscape:connector-curvature="0" />
      <path
         id="path3113"
         transform="translate(625.29998,65.525121)"
         d="m 158.21875,35.25 c -10.65673,0.104274 -15.49235,1.256719 -22.25,3.125 -40.78013,11.27445 -71.76899,44.58824 -79.625,85.59375 -0.89511,4.67215 -6.15406,64.04375 -11.6875,131.96875 -10.84923,133.17836 -10.99652,135.97595 -6.90625,152.875 10.02157,41.40435 42.18769,73.17297 83.34375,82.3125 6.60605,1.467 42.30039,4.76278 128.15625,11.8125 8.66286,0.71132 16.67793,1.36024 25.03125,2.03125 l 0,-10.9375 c -2.58665,-0.0419 -2.40961,-0.0514 -5.03125,-0.0937 -59.4,-0.96028 -112.5,-2.00301 -118,-2.3125 -38.4606,-2.16421 -72.1572,-25.2393 -89,-60.9375 -6.92954,-14.68712 -8.60052,-22.49745 -9.1875,-42.3125 -0.53985,-18.22441 2.28855,-225.85225 3.25,-238.40625 0.77094,-10.06656 2.73969,-19.03902 6.375,-29 13.37324,-36.64355 47.9539,-63.75799 86.5625,-67.875 5.26516,-0.561447 64.77916,0.03567 125.03125,0.9375 l 0,-10.9375 C 205.07508,37.442113 174.30491,35.0926 158.21875,35.25 z m 116.0625,45.34375 c -10.72364,1.948961 -22.76521,4.165002 -36.53125,6.6875 -57.40403,10.51874 -104.53025,19.64598 -108.5,21 -23.69632,8.08249 -42.06883,24.67953 -52.90625,47.8125 -6.73731,14.3811 -8.0488,20.74269 -8,38.34375 l 0.03125,15 18.15625,98.6875 c 9.98181,54.27617 18.88288,101.52617 19.78125,105 8.35542,32.30864 36.39169,58.32607 70.4375,65.3125 3.575,0.73361 11.14537,1.35455 16.8125,1.40625 7.94915,0.0725 20.53729,-1.88044 80.71875,-12.78125 l 0,-7.84375 c -5.9752,1.46792 -11.05839,2.72408 -17.53125,4.3125 -48.29304,11.85096 -56.13532,12.49453 -76.46875,6.34375 -26.4638,-8.00519 -48.46988,-29.46658 -56.875,-55.4375 -0.89,-2.75 -12.24379,-47.75 -25.25,-100 l -23.65625,-95 0,-13.5 c -0.01061,-15.42167 1.86894,-24.37127 7.71875,-36.71875 8.79067,-18.55487 23.63975,-33.37522 41.96875,-41.84375 5.88603,-2.71951 28.65844,-8.73984 100.34375,-26.53125 18.77633,-4.660055 34.37533,-8.488263 49.75,-12.28125 l 0,-7.96875 z m 0,29.6875 c -40.42424,17.22485 -134.30442,58.44187 -140.53125,61.9375 -3.025,1.69817 -9.32451,6.9405 -14.03125,11.65625 -10.1849,10.20441 -15.81501,20.14956 -19.0625,33.71875 -2.88316,12.04688 -2.32383,27.43075 1.40625,38.34375 3.70535,10.84064 65.91985,152.13031 69.875,158.6875 9.84064,16.31465 27.32226,28.7018 46.3125,32.84375 8.97552,1.95764 21.75767,1.77714 31.125,-0.46875 2.02473,-0.48544 11.57344,-4.35892 24.90625,-9.9375 l 0,-7.375 c -7.10432,3.36044 -12.30424,5.69848 -14.03125,6.25 -9.0103,2.87745 -25.21602,3.61114 -34.5,1.53125 -13.21658,-2.96091 -27.8736,-12.11026 -36.96875,-23.03125 -4.64483,-5.57728 -73.32994,-141.5535 -77.09375,-152.625 -3.3111,-9.73981 -3.77855,-25.07056 -1.09375,-35.6875 3.97452,-15.71708 12.28908,-28.58428 24.34375,-37.65625 6.49257,-4.88611 105.10564,-54.6297 139.34375,-70.65625 l 0,-7.53125 z m 0,34.75 c -2.70651,0.7873 -5.33648,1.78528 -7.8125,3.03125 -2.32072,1.16782 -26.94375,17.03897 -54.71875,35.25 -33.49549,21.96174 -52.24069,34.85454 -55.6875,38.34375 -14.61359,14.79334 -19.05592,39.38656 -10.4375,57.78125 4.19847,8.961 66.83266,104.00197 72.78125,110.4375 7.5941,8.21574 17.61579,13.81091 28.84375,16.0625 8.48036,1.70059 18.34338,0.85675 27.03125,-2.25 l 0,-10.8125 c -0.48807,0.1601 -0.99116,0.33642 -1.4375,0.46875 -14.58601,4.3244 -32.39874,0.15187 -44.375,-10.40625 -4.76322,-4.19919 -64.05533,-87.78208 -69.875,-98.5 -10.32393,-19.01324 -6.34212,-42.82835 9.59375,-57.125 5.78201,-5.18725 85.97591,-61.6241 94.84375,-66.75 3.47348,-2.00779 7.27495,-3.45744 11.25,-4.375 l 0,-11.15625 z m 0,46.625 c -3.22935,0.26026 -5.29182,0.86846 -8.25,2.28125 -2.87906,1.375 -19.47744,13.52622 -36.875,26.96875 -33.82506,26.13552 -36.98026,29.27369 -39.46875,39.34375 -1.60857,6.50931 -0.70405,17.15336 1.9375,22.6875 1.18136,2.475 13.20283,18.77243 26.6875,36.21875 25.20334,32.60785 28.39116,35.94904 37.46875,39.125 5.3158,1.85983 12.44316,2.09319 18.5,0.75 l 0,-11.90625 c -7.77231,1.86489 -16.15299,0.34958 -23.09375,-4.3125 -4.89867,-3.29042 -45.36864,-55.47251 -48.15625,-62.09375 -3.84338,-9.12896 -2.23784,-20.70907 3.875,-28.125 3.02861,-3.67423 49.09302,-39.97163 56.90625,-44.84375 3.21801,-2.00666 6.81819,-3.37049 10.46875,-4 l 0,-12.09375 z M 274.25,240.4375 c -0.56243,0.10627 -1.14296,0.25399 -1.6875,0.4375 -3.72982,1.25696 -28.10325,18.74371 -31.5,22.59375 -3.35275,3.80017 -4.47528,8.9771 -2.90625,13.53125 1.68775,4.89872 21.74687,32.21677 24.78125,33.75 1.27089,0.64217 4.82309,1.03281 7.875,0.875 1.35043,-0.0698 2.40384,-0.15476 3.46875,-0.40625 l 0,-12 c -1.29467,0.51849 -2.35484,0.72521 -3.40625,0.71875 -4.83757,-0.0297 -6.71112,-1.73974 -14.5,-13.25 -7.1076,-10.50349 -8.11279,-14.33519 -4.84375,-18.375 0.95027,-1.17433 6.07387,-5.11183 11.375,-8.75 4.90568,-3.36677 8.42334,-5.53847 11.375,-6.3125 l 0,-12.8125 c -0.0102,0.002 -0.0211,-0.002 -0.0313,0 z"
         style="fill:#1717fd"
         inkscape:connector-curvature="0" />
    </g>
  </g>
</svg>
