<?xml version="1.0" encoding="UTF-8" standalone="no"?>
<!-- Created with Inkscape (http://www.inkscape.org/) -->

<svg
   xmlns:dc="http://purl.org/dc/elements/1.1/"
   xmlns:cc="http://creativecommons.org/ns#"
   xmlns:rdf="http://www.w3.org/1999/02/22-rdf-syntax-ns#"
   xmlns:svg="http://www.w3.org/2000/svg"
   xmlns="http://www.w3.org/2000/svg"
   xmlns:sodipodi="http://sodipodi.sourceforge.net/DTD/sodipodi-0.dtd"
   xmlns:inkscape="http://www.inkscape.org/namespaces/inkscape"
   width="594.57965"
   height="694.83191"
   id="svg2"
   version="1.1"
   inkscape:version="0.48.1 r9760"
   sodipodi:docname="New document 1">
  <defs
     id="defs4" />
  <sodipodi:namedview
     id="base"
     pagecolor="#ffffff"
     bordercolor="#666666"
     borderopacity="1.0"
     inkscape:pageopacity="0.0"
     inkscape:pageshadow="2"
     inkscape:zoom="0.69517597"
     inkscape:cx="383.00984"
     inkscape:cy="321.33129"
     inkscape:document-units="px"
     inkscape:current-layer="layer1"
     showgrid="false"
     fit-margin-top="0"
     fit-margin-left="0"
     fit-margin-right="0"
     fit-margin-bottom="0"
     inkscape:window-width="1280"
     inkscape:window-height="730"
     inkscape:window-x="0"
     inkscape:window-y="22"
     inkscape:window-maximized="1" />
  <metadata
     id="metadata7">
    <rdf:RDF>
      <cc:Work
         rdf:about="">
        <dc:format>image/svg+xml</dc:format>
        <dc:type
           rdf:resource="http://purl.org/dc/dcmitype/StillImage" />
        <dc:title></dc:title>
      </cc:Work>
    </rdf:RDF>
  </metadata>
  <g
     inkscape:label="Layer 1"
     inkscape:groupmode="layer"
     id="layer1"
     transform="translate(-51.262048,-109.18695)">
    <path
       style="fill:#000000"
       d="m 418.82308,802.12276 c -0.91324,-2.8773 3.07822,-12.37552 8.02385,-19.09368 5.70245,-7.74624 14.29925,-14.03434 24.13367,-17.65248 6.74406,-2.48119 9.16454,-2.86186 17.80511,-2.80021 8.77537,0.0626 10.98444,0.45954 18.03867,3.24119 13.68798,5.39749 24.53722,16.09175 29.47627,29.0552 3.77166,9.89938 7.80525,9.13228 -48.01494,9.13228 -46.96807,0 -48.88842,-0.073 -49.46263,-1.8823 z M 279.28571,602.83481 c -8.7104,-1.23738 -26.01967,-7.11201 -33.84497,-11.48673 -3.48973,-1.95093 -10.23973,-6.49727 -15,-10.10298 -13.07758,-9.90574 -22.24578,-15.66246 -30.86461,-19.37992 -7.34289,-3.16711 -8.45105,-3.36014 -19.29042,-3.36014 -15.82543,0 -19.56905,1.85656 -34.5,17.10944 -12.58574,12.85711 -18.61089,17.24042 -28.20912,20.52218 -9.5007,3.24842 -23.071329,3.25184 -32.557109,0.008 -12.78708,-4.37229 -23.87346,-13.74354 -29.14941,-24.63962 -6.14403,-12.68886 -6.14403,-36.31114 0,-49 5.27263,-10.88922 16.34459,-20.25216 29.14941,-24.65003 10.03105,-3.44521 24.120819,-3.20914 33.766229,0.56574 20.98823,8.21405 30.09403,9.82376 40.52617,7.16415 15.64323,-3.98814 27.25528,-16.25179 40.96402,-43.26262 5.04743,-9.94515 10.19734,-18.13735 17.2361,-27.41829 22.62635,-29.83391 33.71562,-51.23307 38.29521,-73.89895 2.36255,-11.69302 1.64131,-31.56063 -1.50656,-41.5 -6.534,-20.63108 -19.86572,-38.51446 -44.2101,-59.30409 -16.22176,-13.85307 -22.25836,-25.56805 -22.25836,-43.19591 0,-23.04303 13.39109,-41.68044 35.34496,-49.1923 9.3094,-3.18535 22.97074,-3.16321 32.37479,0.0525 21.67316,7.41107 35.18601,26.28276 35.18601,49.13983 0,11.57764 -1.13417,15.16619 -10.85128,34.33388 -8.08581,15.94982 -12.79907,29.12643 -15.0637,42.1128 -7.89198,45.25594 15.3441,82.0362 73.46274,116.28377 5.225,3.07894 14.34831,8.89705 20.27402,12.92914 17.89155,12.17411 26.6763,15.74534 38.72598,15.7431 12.42766,-0.002 19.40882,-4.02505 30.93626,-17.82637 12.32728,-14.75896 24.87026,-21.02984 42.06374,-21.02984 23.35388,0 41.9548,13.66925 49.60542,36.45352 2.75271,8.19781 2.54008,22.47634 -0.46559,31.26623 -2.69039,7.86786 -8.63325,17.20379 -13.88824,21.81774 -15.42881,13.54667 -33.93091,16.92932 -54.75159,10.00995 -19.0436,-6.32878 -31.26639,-4.31413 -42.39084,6.98717 -6.7134,6.82013 -11.65409,15.1525 -18.48746,31.17869 -7.09767,16.64605 -14.26836,27.26212 -25.89165,38.3321 -11.56167,11.0113 -22.94462,17.91445 -37.43273,22.70095 -16.44218,5.43208 -31.09907,6.83802 -47.29732,4.53694 z m 305.5,-390.78584 c -22.54912,-4.89781 -38.16394,-21.45013 -41.78519,-44.29393 -4.99231,-31.49284 23.26679,-61.29419 55.3485,-58.36915 20.83365,1.89951 37.27703,14.59831 44.808,34.60407 3.46977,9.21732 3.59054,23.63861 0.27872,33.28131 -7.11257,20.70891 -24.88579,34.13513 -46.65003,35.2403 -4.4,0.22343 -9.8,0.0153 -12,-0.4626 z"
       id="path3162"
       inkscape:connector-curvature="0" />
  </g>
</svg>
