<?xml version="1.0" encoding="UTF-8" standalone="no"?>
<!-- Created with Inkscape (http://www.inkscape.org/) -->

<svg
   xmlns:dc="http://purl.org/dc/elements/1.1/"
   xmlns:cc="http://creativecommons.org/ns#"
   xmlns:rdf="http://www.w3.org/1999/02/22-rdf-syntax-ns#"
   xmlns:svg="http://www.w3.org/2000/svg"
   xmlns="http://www.w3.org/2000/svg"
   xmlns:sodipodi="http://sodipodi.sourceforge.net/DTD/sodipodi-0.dtd"
   xmlns:inkscape="http://www.inkscape.org/namespaces/inkscape"
   width="548.55371"
   height="547.82568"
   id="svg2"
   version="1.1"
   inkscape:version="0.48.1 r9760"
   sodipodi:docname="New document 1">
  <defs
     id="defs4" />
  <sodipodi:namedview
     id="base"
     pagecolor="#ffffff"
     bordercolor="#666666"
     borderopacity="1.0"
     inkscape:pageopacity="0.0"
     inkscape:pageshadow="2"
     inkscape:zoom="0.6385157"
     inkscape:cx="310.10274"
     inkscape:cy="255.33127"
     inkscape:document-units="px"
     inkscape:current-layer="layer1"
     showgrid="false"
     fit-margin-top="0"
     fit-margin-left="0"
     fit-margin-right="0"
     fit-margin-bottom="0"
     inkscape:window-width="1280"
     inkscape:window-height="730"
     inkscape:window-x="0"
     inkscape:window-y="22"
     inkscape:window-maximized="1" />
  <metadata
     id="metadata7">
    <rdf:RDF>
      <cc:Work
         rdf:about="">
        <dc:format>image/svg+xml</dc:format>
        <dc:type
           rdf:resource="http://purl.org/dc/dcmitype/StillImage" />
        <dc:title></dc:title>
      </cc:Work>
    </rdf:RDF>
  </metadata>
  <g
     inkscape:label="Layer 1"
     inkscape:groupmode="layer"
     id="layer1"
     transform="translate(-625.29998,-65.525121)">
    <g
       id="g3111"
       transform="translate(536.70452,-15.743332)">
      <path
         style="fill:#fd1717"
         d="m 446.85714,628.50507 c -1.65,-0.22803 -63.21432,-13.22512 -136.80961,-28.88243 -83.71886,-17.81108 -136.80881,-29.5624 -141.82151,-31.39181 -28.48466,-10.39561 -51.41869,-30.29911 -65.69215,-57.01149 -10.704863,-20.03386 -15.882181,-46.46591 -13.270614,-67.75121 0.946146,-7.71146 16.636604,-82.54789 51.608484,-246.1493 3.10389,-14.52028 6.5401,-29.30354 7.63601,-32.85169 5.46188,-17.68351 15.68911,-34.2422 29.79955,-48.2478 17.94903,-17.815683 39.04824,-28.860439 63.91031,-33.454978 9.61425,-1.776727 28.6456,-2.014823 38.13953,-0.477155 13.76008,2.228628 264.92932,56.058413 272.68108,58.440143 38.53838,11.84087 69.76893,44.57812 80.12637,83.99199 5.6599,21.53804 5.36523,36.26052 -1.36598,68.2459 -23.58477,112.0702 -52.88488,248.0079 -54.58656,253.2541 -5.91106,18.22346 -15.88727,34.34767 -29.71931,48.0343 -18.02116,17.83171 -39.04113,28.80897 -63.99607,33.42068 -7.74961,1.43213 -28.82957,1.9101 -36.63953,0.83075 z m 35,-17.39429 c 29.16643,-3.57425 57.12025,-18.9619 75.19331,-41.39144 10.9993,-13.65065 17.63263,-26.64165 22.21629,-43.50935 1.11954,-4.11986 10.59787,-65.64887 21.06296,-136.73114 15.69607,-106.61276 19.02744,-131.16185 19.02744,-140.21454 0,-42.81959 -24.57642,-82.6162 -63,-102.01592 -16.86789,-8.51645 -16.88313,-8.51929 -156.21937,-29.06143 -114.24175,-16.8425 -130.85105,-19.075105 -142.78063,-19.192428 -7.425,-0.07302 -16.40512,0.434283 -19.95582,1.127348 -45.83593,8.94672 -82.01832,43.45712 -92.08448,87.82925 -0.528,2.32749 -9.50994,62.27505 -19.95985,133.21681 -20.85031,141.54733 -20.84624,141.50901 -17.09225,160.76594 7.98817,40.97718 35.90479,73.28994 75.38714,87.25866 4.51289,1.59664 10.68026,3.37889 13.70526,3.96054 6.52881,1.25538 254.69282,37.78364 260.5,38.34405 8.25519,0.79664 15.26786,0.68375 24,-0.38635 z m -144,-26.91169 c -85.85586,-7.04972 -121.55022,-10.33755 -128.15627,-11.80455 -41.15606,-9.13953 -73.32262,-40.90777 -83.34419,-82.31212 -4.09027,-16.89905 -3.96481,-19.68472 6.88442,-152.86308 5.53344,-67.925 10.79316,-127.32266 11.68827,-131.99481 7.85601,-41.00551 38.84122,-74.31211 79.62135,-85.58656 18.02041,-4.98208 22.39739,-4.805 159.83396,6.4665 67.39015,5.52683 125.76654,10.73012 129.7253,11.56287 22.11712,4.65248 40.68226,15.0004 56.67378,31.58906 17.98014,18.65155 27.9614,40.06605 30.63484,65.72617 1.05106,10.0883 0.62805,16.74627 -7.00384,110.23677 -12.51859,153.35243 -12.83092,156.79674 -14.98003,165.19808 -5.44707,21.29379 -15.2916,38.11593 -31.21561,53.34057 -22.01049,21.0438 -46.54818,30.62142 -77.72245,30.33684 -7.50174,-0.0685 -67.18953,-4.52157 -132.63953,-9.89574 z m 148.5,-7.97104 c 40.18371,-4.60872 74.43495,-31.3335 87.91949,-68.59983 6.01889,-16.63403 5.90427,-14.56536 8.11247,-146.40888 1.11923,-66.825 1.74465,-124.65 1.38983,-128.5 -4.42715,-48.03674 -42.93711,-88.22333 -90.55109,-94.49344 -11.15318,-1.46872 -244.69197,-4.99877 -255.3707,-3.86005 -38.6086,4.11701 -73.19651,31.23846 -86.56975,67.88201 -3.63531,9.96098 -5.60672,18.92151 -6.37766,28.98807 -0.96145,12.554 -3.80567,220.19722 -3.26582,238.42163 0.58698,19.81505 2.28477,27.60822 9.21431,42.29534 16.8428,35.6982 50.53832,58.76721 88.99892,60.93142 5.5,0.30949 58.6,1.34839 118,2.30867 59.4,0.96028 110.7,1.80536 114,1.87795 3.3,0.0726 9.825,-0.3067 14.5,-0.84289 z m -247,-7.50038 c -37.24799,-7.47103 -66.77678,-34.84572 -77.36816,-71.72425 -1.30854,-4.55624 -2.66938,-10.75908 -3.02408,-13.78408 -1.00614,-8.58056 -11.60937,-221.14161 -11.59462,-232.43547 0.0341,-26.10392 10.1985,-50.59851 28.83901,-69.4972 15.32432,-15.53658 30.98491,-24.06869 52.21712,-28.44864 10.54379,-2.17505 221.99877,-12.9569 241.43073,-12.31027 16.23438,0.54022 25.12797,2.54657 37.97529,8.56703 11.23981,5.26715 18.55003,10.22904 27.31089,18.53756 15.66003,14.85149 25.38842,32.30013 29.73134,53.32553 2.3171,11.21781 13.58872,237.83535 12.37302,248.76146 -1.84644,16.59488 -8.63179,34.32773 -18.36687,48 -4.80252,6.74482 -17.78926,19.52721 -24.55483,24.16845 -10.55947,7.24388 -25.29525,13.36793 -37.93603,15.76584 -9.40774,1.78462 -216.07938,12.62954 -237.67386,12.47174 -7.07242,-0.0517 -15.78395,-0.68064 -19.35895,-1.3977 z m 146.93708,-14.98704 c 58.88722,-6.86329 110.03815,-13.16761 113.66873,-14.0096 17.44925,-4.04675 36.50091,-15.10556 48.10849,-27.92527 15.59006,-17.21808 24.07162,-37.81076 24.95386,-60.58642 0.44065,-11.37574 -0.60106,-21.80885 -11.5822,-116 -6.63653,-56.925 -12.57548,-106.65 -13.19768,-110.5 -6.03348,-37.33362 -33.84394,-67.98555 -70.38828,-77.58004 -17.37122,-4.56071 -19.85629,-4.39052 -139,9.51942 -63.781,7.44638 -111.27548,13.43581 -116,14.62851 -11.00817,2.779 -26.45871,10.57124 -35.84934,18.08004 -14.98616,11.98301 -27.66079,31.50571 -32.68983,50.35207 -4.60028,17.23952 -4.43183,19.70676 9.49017,139 7.64224,65.48395 13.40827,111.14934 14.64696,116 8.10141,31.72459 33.19987,57.93938 64.60486,67.47835 19.49454,5.92129 20.25071,5.87664 143.23426,-8.45706 z m -120.93708,5.95694 c -34.04581,-6.98643 -62.10016,-32.98563 -70.45558,-65.29427 -0.89837,-3.47383 -9.80035,-50.72383 -19.78216,-105 l -18.14876,-98.68396 -0.0416,-15 c -0.0488,-17.60106 1.28637,-23.9856 8.02368,-38.3667 10.83742,-23.13297 29.18894,-39.72112 52.88526,-47.80361 3.96975,-1.35402 51.11515,-10.47432 108.51918,-20.99306 112.94636,-20.69636 115.92913,-21.09014 133.01003,-17.55985 35.99658,7.43979 63.54167,34.33391 71.41086,69.72322 0.85609,3.85 9.69953,51.775 19.65209,106.5 l 18.09556,99.5 -0.49408,11.5 c -0.61142,14.23149 -3.1869,24.51825 -9.19387,36.72137 -11.4577,23.27625 -33.30717,41.54667 -56.98059,47.6469 -3.3,0.85035 -51.76326,9.89036 -107.69613,20.08891 -91.51075,16.68566 -102.72811,18.53341 -112,18.44885 -5.66713,-0.0517 -13.22887,-0.69419 -16.80387,-1.4278 z m 80,-14.91069 c 133.4789,-32.75531 158.95739,-39.32526 166.62392,-42.96608 33.22276,-15.77741 52.66783,-49.57866 49.34584,-85.77757 -0.9328,-10.16454 -46.51553,-195.17784 -50.81503,-206.25044 -10.01066,-25.78065 -33.55176,-45.58313 -62.06381,-52.20728 -8.48261,-1.97075 -26.4969,-1.96801 -35.59092,0.005 -3.85,0.83546 -48.72696,11.87513 -99.72657,24.53261 -71.68531,17.79141 -94.45425,23.81182 -100.34028,26.53133 -18.329,8.46853 -33.17866,23.26546 -41.96933,41.82033 -5.84981,12.34748 -7.73704,21.32247 -7.72643,36.74414 l 0.009,13.5 23.64766,95 c 13.00621,52.25 24.37584,97.25 25.26584,100 8.40512,25.97092 30.41126,47.41359 56.87506,55.41878 20.33343,6.15078 28.17172,5.49972 76.46476,-6.35124 z m -50,2.3987 c -28.69228,-3.32618 -54.22377,-21.87277 -65.63696,-47.68001 -1.32992,-3.0072 -14.99597,-45.72565 -30.369,-94.9299 -29.16487,-93.34763 -30.84612,-99.74859 -29.4916,-112.28221 1.28616,-11.90111 3.76266,-20.82315 8.48649,-30.57412 8.03805,-16.59221 20.20363,-29.0395 36.30947,-37.15027 7.28023,-3.66627 180.74836,-58.35818 191.13526,-60.2621 8.18795,-1.50085 22.74722,-1.3325 30.7092,0.35509 14.94523,3.16772 28.37334,10.25374 39.55016,20.87063 9.03874,8.58591 15.93738,18.83071 20.13543,29.90201 5.40665,14.2587 55.99446,177.92396 57.24729,185.2105 0.694,4.03635 0.9767,11.33743 0.6776,17.5 -1.07623,22.17447 -11.5918,43.28421 -28.75334,57.72162 -12.07037,10.15438 -17.75636,12.27569 -111,41.41152 -47.575,14.86576 -89.2,27.63762 -92.5,28.38191 -8.11651,1.83062 -18.64091,2.4364 -26.5,1.52533 z m 32.37326,-9.41064 c 6.41316,-1.22704 76.4677,-26.988 159.5222,-58.66066 18.24662,-6.95831 27.74227,-12.52143 36.41558,-21.33442 14.62614,-14.8617 21.68896,-32.41591 21.68896,-53.90659 0,-6.90957 -0.61445,-13.47676 -1.64578,-17.59004 -1.66701,-6.64853 -59.38324,-161.03391 -63.90539,-170.94078 -5.71612,-12.52256 -17.73402,-25.65858 -30.22329,-33.03522 -17.69371,-10.45058 -41.30847,-13.46918 -60.24133,-7.70046 -9.39931,2.86391 -162.76348,60.9294 -168.65664,63.8554 -19.07405,9.47043 -34.30382,27.93628 -39.80027,48.25717 -2.49116,9.21008 -3.04893,24.52817 -1.24006,34.0556 2.06535,10.87826 62.25374,171.16187 67.94677,180.9444 4.85643,8.34497 17.9168,21.57185 26.02285,26.35461 16.63973,9.81784 35.67307,13.22978 54.1164,9.70099 z m -20.87326,-9.02325 c -18.99024,-4.14195 -36.48947,-16.55831 -46.33011,-32.87296 -3.95515,-6.55719 -66.15451,-147.81875 -69.85986,-158.65939 -3.73008,-10.913 -4.29825,-26.31584 -1.41509,-38.36272 3.24749,-13.56919 8.86246,-23.50696 19.04736,-33.71137 4.70674,-4.71575 11.0327,-9.96351 14.0577,-11.66168 7.75663,-4.35443 153.03184,-67.93324 159.31927,-69.7251 19.97507,-5.69274 42.41887,-2.45991 59.30603,8.54251 7.3213,4.77001 18.69447,16.3735 22.62721,23.08543 3.42891,5.85204 66.88713,150.42992 69.79519,159.01549 3.33705,9.85208 3.82255,26.93899 1.07424,37.80707 -4.96075,19.61714 -15.95756,34.82147 -32.38704,44.77878 -9.8868,5.99203 -155.39968,69.18121 -164.13347,71.2752 -9.36733,2.24589 -22.12591,2.44638 -31.10143,0.48874 z m 42,-11.5313 c 10.78938,-3.44561 146.96988,-72.00404 153,-77.026 19.9203,-16.5899 28.873,-43.55687 22.60132,-68.07887 -2.57529,-10.06931 -69.63987,-145.56044 -76.57512,-154.70536 -9.01964,-11.89344 -23.57157,-21.36436 -38.0262,-24.74883 -9.54361,-2.23458 -26.38472,-1.52641 -35.85652,1.50777 -10.39753,3.33072 -142.89855,69.87566 -150.45266,75.56065 -12.05467,9.07197 -20.37961,21.94645 -24.35413,37.66353 -2.6848,10.61694 -2.21303,25.95075 1.09807,35.69056 3.76381,11.0715 72.44536,147.05822 77.09019,152.6355 9.09515,10.92099 23.75847,20.04422 36.97505,23.00513 9.28398,2.07989 25.4897,1.37337 34.5,-1.50408 z m -26.5,-8.489 c -14.49819,-3.26348 -29.93444,-13.60317 -37.89091,-25.38055 -7.46773,-11.05394 -71.40529,-127.40693 -73.80726,-134.3138 -8.88258,-25.54185 1.4904,-55.7541 24.41026,-71.0971 10.11274,-6.76967 125.89549,-70.73405 131.78099,-72.80263 21.32666,-7.49572 43.95286,-3.44695 61.26882,10.96354 3.26584,2.71786 7.53142,7.11887 9.47907,9.78003 3.35694,4.58671 64.14239,113.2067 71.24489,127.31038 1.8412,3.65614 4.14477,9.32065 5.11904,12.5878 2.16169,7.24911 2.42068,22.59601 0.5137,30.44028 -3.14426,12.93372 -12.42965,27.41841 -22.34208,34.85236 -9.04751,6.78529 -129.22835,72.97776 -137.60719,75.79045 -9.5229,3.19673 -22.83541,3.97027 -32.16933,1.86924 z m 36.06087,-12.43011 c 4.8025,-1.49727 22.22303,-11.57497 65,-37.60223 64.0772,-38.98719 67.59473,-41.56311 74.33342,-54.43494 5.04756,-9.64155 6.93271,-17.13156 6.93271,-27.54477 0,-9.38482 -1.79979,-17.51783 -5.52571,-24.9699 -1.10824,-2.21656 -17.1544,-28.96631 -35.65814,-59.44391 -36.11463,-59.48459 -39.72089,-64.50392 -51.27638,-71.36827 -16.52672,-9.81745 -37.36607,-10.90156 -53.86677,-2.80229 -5.75254,2.82361 -104.38896,62.623 -114.07526,69.15935 -15.35076,10.35877 -25.89001,29.86799 -25.89001,47.92502 0,6.33767 2.47011,17.24737 5.28332,23.33479 2.76642,5.98616 67.18998,111.85508 72.33436,118.86893 6.67252,9.09733 20.16038,17.46992 32.84759,20.39015 7.83533,1.80346 21.10331,1.12485 29.56087,-1.51193 z m -22.56087,-9.1032 c -11.22796,-2.25159 -21.25972,-7.83044 -28.85382,-16.04618 -5.94859,-6.43553 -68.58197,-101.47156 -72.78044,-110.43256 -8.61842,-18.39469 -4.17597,-42.98709 10.43762,-57.78043 3.44681,-3.48921 22.20115,-16.40978 55.69664,-38.37152 27.775,-18.21103 52.39878,-34.06645 54.7195,-35.23427 13.87276,-6.98096 31.99571,-6.75479 47.2805,0.59005 11.00237,5.287 16.81811,12.70129 51.5,65.65572 17.6,26.87276 33.01516,50.82353 34.25592,53.22394 3.41787,6.61233 5.24408,14.95102 5.24408,23.94511 0,13.92233 -5.33869,27.01084 -14.86062,36.43282 -6.34651,6.27989 -102.89358,70.27094 -112.29486,74.42863 -9.43377,4.17206 -20.75732,5.51124 -30.34452,3.58869 z m 25.5685,-12.58905 c 2.98732,-0.88567 7.15119,-2.48624 9.25304,-3.55682 7.3982,-3.76829 93.23649,-64.34981 97.88444,-69.08326 15.25165,-15.53217 17.43783,-40.05825 5.28134,-59.24961 -5.00202,-7.89665 -59.33538,-85.54002 -63.09646,-90.16601 -13.26691,-16.31778 -40.80467,-21.30534 -59.13428,-10.71023 -8.86784,5.1259 -89.0342,61.56113 -94.81621,66.74838 -15.93587,14.29665 -19.94393,38.08656 -9.62,57.0998 5.81967,10.71792 65.12189,94.30731 69.88511,98.5065 11.97626,10.55812 29.77701,14.73565 44.36302,10.41125 z m -19.60995,-10.78457 c -7.27707,-1.76792 -13.81146,-5.18744 -19.00624,-9.94618 -6.07284,-5.56308 -61.61403,-81.41857 -65.64805,-89.65894 -6.51574,-13.30985 -4.65882,-31.21885 4.52377,-43.62928 3.65362,-4.93794 10.84451,-10.63733 45.25788,-35.87072 22.50275,-16.5 43.44552,-31.23611 46.5395,-32.7469 15.31575,-7.47872 36.71512,-3.76015 48.55808,8.43796 5.89056,6.06719 60.78621,81.21547 63.89812,87.47201 8.03289,16.15025 4.23439,36.86046 -9.08161,49.51491 -7.13528,6.7808 -80.99789,60.58955 -87.07316,63.43261 -9.10233,4.25965 -18.58272,5.2747 -27.96829,2.99453 z m 27.93584,-14.5366 c 6.34692,-3.18496 68.50267,-49.6829 76.8901,-57.52053 2.99109,-2.79502 5.98792,-7.01547 7.99502,-11.25943 2.87337,-6.07564 3.21053,-7.73373 3.21053,-15.78856 0,-8.0127 -0.34137,-9.71305 -3.11186,-15.5 -3.63798,-7.59895 -52.18133,-72.30835 -59.19432,-78.90739 -2.57612,-2.42406 -7.15886,-5.57406 -10.18386,-7 -4.77454,-2.25064 -6.81902,-2.59261 -15.5,-2.59261 -8.71279,0 -10.70796,0.33641 -15.5,2.61347 -5.83344,2.77191 -70.51121,51.17434 -77.80366,58.22535 -2.36701,2.28865 -5.74201,7.0783 -7.5,10.64367 -2.97291,6.02935 -3.19166,7.18272 -3.12941,16.5 0.0531,7.94091 0.50295,10.98081 2.17029,14.66447 1.7995,3.97562 37.40254,52.17505 54.02675,73.14146 9.54045,12.03238 20.1533,17.09349 34.13042,16.2763 5.67328,-0.3317 8.81552,-1.14547 13.5,-3.4962 z m -25.389,-9.73651 c -9.07759,-3.17596 -12.26545,-6.50357 -37.46879,-39.11142 -13.48467,-17.44632 -25.48414,-33.74559 -26.6655,-36.22059 -2.64155,-5.53414 -3.5557,-16.19228 -1.94713,-22.70159 2.48849,-10.07006 5.64974,-13.22192 39.4748,-39.35744 17.39756,-13.44253 33.98752,-25.56597 36.86658,-26.94097 4.33774,-2.07165 6.69105,-2.49489 13.73465,-2.47015 10.70656,0.0376 16.64676,2.48597 23.71068,9.77282 7.42916,7.66361 49.26633,62.45795 51.689,67.69733 3.20339,6.92779 2.96293,19.6818 -0.50905,27 -1.43515,3.025 -4.16389,7.075 -6.06388,9 -7.41247,7.51007 -64.1773,50.36578 -69.74767,52.65736 -6.68107,2.74851 -16.339,3.0309 -23.07369,0.67465 z m 21.89469,-12.20204 c 4.83384,-1.83672 52.68551,-37.93749 59.98298,-45.25301 7.59589,-7.61468 9.9829,-19.45413 5.94017,-29.46292 -2.97775,-7.37217 -42.07954,-58.13837 -48.18871,-62.56384 -2.20381,-1.59642 -6.49777,-3.6267 -9.54214,-4.51172 -6.99135,-2.03244 -15.35137,-0.72387 -22.04618,3.45083 -7.81323,4.87212 -53.87925,41.1848 -56.90786,44.85903 -6.11284,7.41593 -7.701,18.99402 -3.85762,28.12298 2.78761,6.62124 43.24722,58.79496 48.14589,62.08538 7.96465,5.34982 17.80601,6.56664 26.47347,3.27327 z m -17.8702,-11.24256 c -1.35856,-0.5422 -3.89755,-2.07458 -5.6422,-3.40528 -3.17906,-2.42479 -34.71486,-42.53259 -38.54035,-49.01631 -1.11955,-1.8975 -2.272,-6.05759 -2.56099,-9.24463 -0.6534,-7.20582 2.08882,-14.2832 7.52546,-19.42242 5.99169,-5.66391 42.81341,-33.56692 47.35046,-35.88155 7.66231,-3.90902 19.50446,-2.35047 25.68577,3.38051 3.08143,2.85693 34.61949,43.68739 37.46944,48.50946 1.69537,2.86854 2.1759,5.25528 2.15283,10.69281 -0.0331,7.79953 -2.16237,13.05631 -7.12872,17.59942 -6.36408,5.82174 -43.12174,33.55822 -47.24578,35.65058 -4.7956,2.43308 -14.38587,3.0052 -19.06592,1.13741 z m 16.25268,-11.80474 c 3.61478,-1.37434 37.80631,-27.21115 40.94223,-30.93797 6.68762,-7.94778 5.8694,-16.15793 -2.80099,-28.10566 -16.11771,-22.21009 -23.97365,-31.5601 -28.38975,-33.78904 -5.42534,-2.73833 -11.37811,-2.87865 -16.27209,-0.38355 -5.35611,2.73069 -38.62518,28.13272 -40.74563,31.11061 -0.99525,1.3977 -2.3178,4.4288 -2.939,6.73577 -1.98916,7.38716 -0.20144,11.31181 13.63296,29.92893 14.39541,19.3721 17.63133,23.07541 21.78971,24.93696 3.4881,1.5615 11.30049,1.82783 14.78256,0.50395 z M 351.54642,392.0271 c -3.03438,-1.53323 -23.09662,-28.85982 -24.78437,-33.75854 -1.56903,-4.55415 -0.46111,-9.74325 2.89164,-13.54342 3.39675,-3.85004 27.78881,-21.32974 31.51863,-22.5867 4.35631,-1.46809 9.41446,-0.4382 13.10678,2.66869 3.9753,3.34499 21.03375,26.88988 22.8715,31.56832 1.71756,4.37249 1.0225,9.53685 -1.75956,13.07366 -1.05244,1.33797 -8.3311,7.09895 -16.1748,12.80218 -13.59546,9.88541 -14.52032,10.38292 -19.81018,10.65646 -3.05191,0.15781 -6.58875,-0.23848 -7.85964,-0.88065 z m 21.92103,-18.05776 c 10.61426,-7.42327 13.54947,-10.98508 12.49963,-15.168 -0.31343,-1.2488 -3.09862,-6.05312 -6.18932,-10.67627 -11.19063,-16.73926 -13.60731,-17.36226 -28.2822,-7.29087 -5.30113,3.63817 -10.41591,7.57567 -11.36618,8.75 -3.26904,4.03981 -2.26262,7.85284 4.84498,18.35633 7.78888,11.51026 9.66711,13.22688 14.50468,13.25657 2.89527,0.0178 5.70166,-1.43227 13.98841,-7.22776 z m -14.64761,-4.78877 c -2.46598,-0.93011 -8.74905,-11.23581 -8.29321,-13.60281 0.41884,-2.17487 8.06167,-8.12735 11.56392,-9.00636 1.41688,-0.35561 3.29399,-0.20489 4.17137,0.33494 2.21011,1.35985 8.20869,11.48526 7.86413,13.27442 -0.31075,1.61362 -9.16418,8.64718 -11.72872,9.31782 -0.88813,0.23225 -2.498,0.0891 -3.57749,-0.31801 z"
         id="path3115"
         inkscape:connector-curvature="0" />
      <path
         style="fill:#1717fd"
         d="m 337.85714,584.19909 c -85.85586,-7.04972 -121.55022,-10.33755 -128.15627,-11.80455 -41.15606,-9.13953 -73.32262,-40.90777 -83.34419,-82.31212 -4.09027,-16.89905 -3.96481,-19.68472 6.88442,-152.86308 5.53344,-67.925 10.79316,-127.32266 11.68827,-131.99481 7.85601,-41.00551 38.84122,-74.31211 79.62135,-85.58656 18.02041,-4.98208 22.39739,-4.805 159.83396,6.4665 67.39015,5.52683 125.76654,10.73012 129.7253,11.56287 22.11712,4.65248 40.68226,15.0004 56.67378,31.58906 17.98014,18.65155 27.9614,40.06605 30.63484,65.72617 1.05106,10.0883 0.62805,16.74627 -7.00384,110.23677 -12.51859,153.35243 -12.83092,156.79674 -14.98003,165.19808 -5.44707,21.29379 -15.2916,38.11593 -31.21561,53.34057 -22.01049,21.0438 -46.54818,30.62142 -77.72245,30.33684 -7.50174,-0.0685 -67.18953,-4.52157 -132.63953,-9.89574 z m 148.5,-7.97104 c 40.18371,-4.60872 74.43495,-31.3335 87.91949,-68.59983 6.01889,-16.63403 5.90427,-14.56536 8.11247,-146.40888 1.11923,-66.825 1.74465,-124.65 1.38983,-128.5 -4.42715,-48.03674 -42.93711,-88.22333 -90.55109,-94.49344 -11.15318,-1.46872 -244.69197,-4.99877 -255.3707,-3.86005 -38.6086,4.11701 -73.19651,31.23846 -86.56975,67.88201 -3.63531,9.96098 -5.60672,18.92151 -6.37766,28.98807 -0.96145,12.554 -3.80567,220.19722 -3.26582,238.42163 0.58698,19.81505 2.28477,27.60822 9.21431,42.29534 16.8428,35.6982 50.53832,58.76721 88.99892,60.93142 5.5,0.30949 58.6,1.34839 118,2.30867 59.4,0.96028 110.7,1.80536 114,1.87795 3.3,0.0726 9.825,-0.3067 14.5,-0.84289 z m -221,-16.53048 c -34.04581,-6.98643 -62.10016,-32.98563 -70.45558,-65.29427 -0.89837,-3.47383 -9.80035,-50.72383 -19.78216,-105 l -18.14876,-98.68396 -0.0416,-15 c -0.0488,-17.60106 1.28637,-23.9856 8.02368,-38.3667 10.83742,-23.13297 29.18894,-39.72112 52.88526,-47.80361 3.96975,-1.35402 51.11515,-10.47432 108.51918,-20.99306 112.94636,-20.69636 115.92913,-21.09014 133.01003,-17.55985 35.99658,7.43979 63.54167,34.33391 71.41086,69.72322 0.85609,3.85 9.69953,51.775 19.65209,106.5 l 18.09556,99.5 -0.49408,11.5 c -0.61142,14.23149 -3.1869,24.51825 -9.19387,36.72137 -11.4577,23.27625 -33.30717,41.54667 -56.98059,47.6469 -3.3,0.85035 -51.76326,9.89036 -107.69613,20.08891 -91.51075,16.68566 -102.72811,18.53341 -112,18.44885 -5.66713,-0.0517 -13.22887,-0.69419 -16.80387,-1.4278 z m 80,-14.91069 c 133.4789,-32.75531 158.95739,-39.32526 166.62392,-42.96608 33.22276,-15.77741 52.66783,-49.57866 49.34584,-85.77757 -0.9328,-10.16454 -46.51553,-195.17784 -50.81503,-206.25044 -10.01066,-25.78065 -33.55176,-45.58313 -62.06381,-52.20728 -8.48261,-1.97075 -26.4969,-1.96801 -35.59092,0.005 -3.85,0.83546 -48.72696,11.87513 -99.72657,24.53261 -71.68531,17.79141 -94.45425,23.81182 -100.34028,26.53133 -18.329,8.46853 -33.17866,23.26546 -41.96933,41.82033 -5.84981,12.34748 -7.73704,21.32247 -7.72643,36.74414 l 0.009,13.5 23.64766,95 c 13.00621,52.25 24.37584,97.25 25.26584,100 8.40512,25.97092 30.41126,47.41359 56.87506,55.41878 20.33343,6.15078 28.17172,5.49972 76.46476,-6.35124 z m -38.5,-16.03519 c -18.99024,-4.14195 -36.48947,-16.55831 -46.33011,-32.87296 -3.95515,-6.55719 -66.15451,-147.81875 -69.85986,-158.65939 -3.73008,-10.913 -4.29825,-26.31584 -1.41509,-38.36272 3.24749,-13.56919 8.86246,-23.50696 19.04736,-33.71137 4.70674,-4.71575 11.0327,-9.96351 14.0577,-11.66168 7.75663,-4.35443 153.03184,-67.93324 159.31927,-69.7251 19.97507,-5.69274 42.41887,-2.45991 59.30603,8.54251 7.3213,4.77001 18.69447,16.3735 22.62721,23.08543 3.42891,5.85204 66.88713,150.42992 69.79519,159.01549 3.33705,9.85208 3.82255,26.93899 1.07424,37.80707 -4.96075,19.61714 -15.95756,34.82147 -32.38704,44.77878 -9.8868,5.99203 -155.39968,69.18121 -164.13347,71.2752 -9.36733,2.24589 -22.12591,2.44638 -31.10143,0.48874 z m 42,-11.5313 c 10.78938,-3.44561 146.96988,-72.00404 153,-77.026 19.9203,-16.5899 28.873,-43.55687 22.60132,-68.07887 -2.57529,-10.06931 -69.63987,-145.56044 -76.57512,-154.70536 -9.01964,-11.89344 -23.57157,-21.36436 -38.0262,-24.74883 -9.54361,-2.23458 -26.38472,-1.52641 -35.85652,1.50777 -10.39753,3.33072 -142.89855,69.87566 -150.45266,75.56065 -12.05467,9.07197 -20.37961,21.94645 -24.35413,37.66353 -2.6848,10.61694 -2.21303,25.95075 1.09807,35.69056 3.76381,11.0715 72.44536,147.05822 77.09019,152.6355 9.09515,10.92099 23.75847,20.04422 36.97505,23.00513 9.28398,2.07989 25.4897,1.37337 34.5,-1.50408 z m -13,-30.02231 c -11.22796,-2.25159 -21.25972,-7.83044 -28.85382,-16.04618 -5.94859,-6.43553 -68.58197,-101.47156 -72.78044,-110.43256 -8.61842,-18.39469 -4.17597,-42.98709 10.43762,-57.78043 3.44681,-3.48921 22.20115,-16.40978 55.69664,-38.37152 27.775,-18.21103 52.39878,-34.06645 54.7195,-35.23427 13.87276,-6.98096 31.99571,-6.75479 47.2805,0.59005 11.00237,5.287 16.81811,12.70129 51.5,65.65572 17.6,26.87276 33.01516,50.82353 34.25592,53.22394 3.41787,6.61233 5.24408,14.95102 5.24408,23.94511 0,13.92233 -5.33869,27.01084 -14.86062,36.43282 -6.34651,6.27989 -102.89358,70.27094 -112.29486,74.42863 -9.43377,4.17206 -20.75732,5.51124 -30.34452,3.58869 z m 25.5685,-12.58905 c 2.98732,-0.88567 7.15119,-2.48624 9.25304,-3.55682 7.3982,-3.76829 93.23649,-64.34981 97.88444,-69.08326 15.25165,-15.53217 17.43783,-40.05825 5.28134,-59.24961 -5.00202,-7.89665 -59.33538,-85.54002 -63.09646,-90.16601 -13.26691,-16.31778 -40.80467,-21.30534 -59.13428,-10.71023 -8.86784,5.1259 -89.0342,61.56113 -94.81621,66.74838 -15.93587,14.29665 -19.94393,38.08656 -9.62,57.0998 5.81967,10.71792 65.12189,94.30731 69.88511,98.5065 11.97626,10.55812 29.77701,14.73565 44.36302,10.41125 z m -17.06311,-35.05768 c -9.07759,-3.17596 -12.26545,-6.50357 -37.46879,-39.11142 -13.48467,-17.44632 -25.48414,-33.74559 -26.6655,-36.22059 -2.64155,-5.53414 -3.5557,-16.19228 -1.94713,-22.70159 2.48849,-10.07006 5.64974,-13.22192 39.4748,-39.35744 17.39756,-13.44253 33.98752,-25.56597 36.86658,-26.94097 4.33774,-2.07165 6.69105,-2.49489 13.73465,-2.47015 10.70656,0.0376 16.64676,2.48597 23.71068,9.77282 7.42916,7.66361 49.26633,62.45795 51.689,67.69733 3.20339,6.92779 2.96293,19.6818 -0.50905,27 -1.43515,3.025 -4.16389,7.075 -6.06388,9 -7.41247,7.51007 -64.1773,50.36578 -69.74767,52.65736 -6.68107,2.74851 -16.339,3.0309 -23.07369,0.67465 z m 21.89469,-12.20204 c 4.83384,-1.83672 52.68551,-37.93749 59.98298,-45.25301 7.59589,-7.61468 9.9829,-19.45413 5.94017,-29.46292 -2.97775,-7.37217 -42.07954,-58.13837 -48.18871,-62.56384 -2.20381,-1.59642 -6.49777,-3.6267 -9.54214,-4.51172 -6.99135,-2.03244 -15.35137,-0.72387 -22.04618,3.45083 -7.81323,4.87212 -53.87925,41.1848 -56.90786,44.85903 -6.11284,7.41593 -7.701,18.99402 -3.85762,28.12298 2.78761,6.62124 43.24722,58.79496 48.14589,62.08538 7.96465,5.34982 17.80601,6.56664 26.47347,3.27327 z m -14.7108,-35.32221 c -3.03438,-1.53323 -23.09662,-28.85982 -24.78437,-33.75854 -1.56903,-4.55415 -0.46111,-9.74325 2.89164,-13.54342 3.39675,-3.85004 27.78881,-21.32974 31.51863,-22.5867 4.35631,-1.46809 9.41446,-0.4382 13.10678,2.66869 3.9753,3.34499 21.03375,26.88988 22.8715,31.56832 1.71756,4.37249 1.0225,9.53685 -1.75956,13.07366 -1.05244,1.33797 -8.3311,7.09895 -16.1748,12.80218 -13.59546,9.88541 -14.52032,10.38292 -19.81018,10.65646 -3.05191,0.15781 -6.58875,-0.23848 -7.85964,-0.88065 z m 21.92103,-18.05776 c 10.61426,-7.42327 13.54947,-10.98508 12.49963,-15.168 -0.31343,-1.2488 -3.09862,-6.05312 -6.18932,-10.67627 -11.19063,-16.73926 -13.60731,-17.36226 -28.2822,-7.29087 -5.30113,3.63817 -10.41591,7.57567 -11.36618,8.75 -3.26904,4.03981 -2.26262,7.85284 4.84498,18.35633 7.78888,11.51026 9.66711,13.22688 14.50468,13.25657 2.89527,0.0178 5.70166,-1.43227 13.98841,-7.22776 z"
         id="path3113"
         inkscape:connector-curvature="0" />
    </g>
  </g>
</svg>
