<?xml version="1.0" encoding="UTF-8" standalone="no"?>
<!-- Created with Inkscape (http://www.inkscape.org/) -->

<svg
   xmlns:dc="http://purl.org/dc/elements/1.1/"
   xmlns:cc="http://creativecommons.org/ns#"
   xmlns:rdf="http://www.w3.org/1999/02/22-rdf-syntax-ns#"
   xmlns:svg="http://www.w3.org/2000/svg"
   xmlns="http://www.w3.org/2000/svg"
   xmlns:sodipodi="http://sodipodi.sourceforge.net/DTD/sodipodi-0.dtd"
   xmlns:inkscape="http://www.inkscape.org/namespaces/inkscape"
   width="761.81104"
   height="1087.7953"
   id="svg3956"
   version="1.1"
   inkscape:version="0.48.1 r9760"
   sodipodi:docname="voronoi-left.svg">
  <defs
     id="defs3958" />
  <sodipodi:namedview
     id="base"
     pagecolor="#ffffff"
     bordercolor="#666666"
     borderopacity="1.0"
     inkscape:pageopacity="0.0"
     inkscape:pageshadow="2"
     inkscape:zoom="0.68854545"
     inkscape:cx="277.06296"
     inkscape:cy="486.28795"
     inkscape:document-units="mm"
     inkscape:current-layer="layer1"
     showgrid="false"
     fit-margin-top="0"
     fit-margin-left="0"
     fit-margin-right="0"
     fit-margin-bottom="0"
     inkscape:window-width="1680"
     inkscape:window-height="980"
     inkscape:window-x="0"
     inkscape:window-y="22"
     inkscape:window-maximized="1"
     units="mm" />
  <metadata
     id="metadata3961">
    <rdf:RDF>
      <cc:Work
         rdf:about="">
        <dc:format>image/svg+xml</dc:format>
        <dc:type
           rdf:resource="http://purl.org/dc/dcmitype/StillImage" />
        <dc:title />
      </cc:Work>
    </rdf:RDF>
  </metadata>
  <g
     inkscape:label="Layer 1"
     inkscape:groupmode="layer"
     id="layer1"
     transform="translate(99.331245,399.13995)">
    <path
       style="fill:#fd0303"
       d="M 743.4375 0 C 631.90095 -0.02019 607.94275 4.01859 595 25.09375 C 585.6866 40.2591 582.93326 62.85553 581 139.71875 C 578.91266 222.70862 580.23895 224.34324 666.46875 246.125 C 713.89615 258.10523 729.67383 261.20711 761.8125 245.1875 L 761.8125 0.03125 C 755.96857 0.0038760147 749.86226 0.0011671418 743.4375 0 z M 433.53125 0.0625 C 385.09793 -0.016334739 336.11517 2.0793813 323.34375 5.53125 C 300.29199 11.76171 292.65191 21.53017 288.90625 49.46875 C 286.13688 70.12532 287.90189 165.3919 291.34375 180.96875 C 296.54095 204.48982 305.74451 214.8803 333.375 228.40625 C 358.35125 240.63286 411.06529 262.30295 425.4375 266.25 C 442.52553 270.9429 457.00295 269.68239 476.78125 261.8125 C 502.53195 251.56616 535.4328 234.99756 542.90625 228.53125 C 558.35952 215.16049 562.17015 198.00824 565.28125 127.875 C 567.46886 78.55996 566.71054 41.23736 563.28125 30.96875 C 562.05718 27.30338 558.03608 21.14466 554.34375 17.3125 C 544.42682 7.02 531.62258 3.58384 495.78125 1.59375 C 477.45122 0.57597188 455.5464 0.098333972 433.53125 0.0625 z M 145.46875 0.3125 C 105.1002 0.40331572 59.616894 1.5483938 49.71875 3.28125 C 23.42403 7.88464 13.02886 17.20147 7.65625 40.96875 C 4.55761 54.67643 4.55278 173.19075 7.65625 188.96875 C 12.25097 212.32817 20.06633 221.09511 55.1875 242.28125 C 82.63621 258.83912 82.71791 258.87092 93.53125 261.78125 C 98.41248 263.095 104.13998 264.22065 106.25 264.28125 C 114.99455 264.53232 137.80299 258.38004 170.96875 246.8125 C 251.65972 218.66917 263.5757 210.79544 269.78125 181.5 C 273.16154 165.54235 273.24882 62.08072 269.90625 43.34375 C 264.37731 12.35083 252.51685 4.83136 203.78125 1.40625 C 192.0607 0.58254 169.68988 0.25801057 145.46875 0.3125 z M 277.3125 232.03125 C 256.98514 232.10555 250.19613 233.85181 197.5625 252.8125 C 122.62522 279.80788 113.95067 287.51745 105.84375 333.875 C 100.66284 363.50077 96.19621 420.22136 96.96875 446.84375 C 97.88785 478.51592 100.06853 485.70268 112.34375 497.96875 C 130.94339 516.5545 159.17692 524.12075 255.5625 536.28125 C 281.79772 539.59123 310.02769 542.93663 318.3125 543.71875 C 340.58863 545.8217 372.42201 545.82676 383.65625 543.75 C 411.41562 538.61841 423.35368 523.66213 428.875 487.125 C 431.93233 466.89321 435.34523 370.29995 433.90625 344.75 C 431.47211 301.5303 423.25922 287.18819 391.96875 271.5 C 376.67197 263.8306 326.91171 242.98943 309.96875 237.15625 C 296.77465 232.61376 292.70561 231.97495 277.3125 232.03125 z M 17.25 239.90625 C 15.879442 239.93852 14.664385 240.21669 13.5625 240.71875 C 1.95075 246.00941 0.8032 261.75422 1.625 400.8125 C 2.3571 524.69135 2.63369 529.16489 10.6875 535.5 C 16.10488 539.7613 19.51139 538.98663 38.78125 529.0625 C 59.78339 518.2462 70.11432 507.95892 74.59375 493.3125 C 81.32438 471.30518 91.88883 370.48369 92.1875 325.5 C 92.35796 299.82744 92.03635 296.30744 88.84375 289.40625 C 83.86757 278.64963 75.29121 270.96469 52.4375 256.78125 C 32.478624 244.3944 23.189084 239.7664 17.25 239.90625 z M 575.53125 245 C 569.28566 245.0818 563.98081 245.92864 558.46875 247.375 C 542.30254 251.617 493.73151 273.19904 480.6875 281.9375 C 464.58254 292.72656 458.75835 305.00873 454.8125 336.5 C 452.40268 355.73245 449.15059 471.18795 450.25 498.71875 C 452.09052 544.80713 458.93422 558.32332 491.28125 579.75 C 515.12488 595.54403 556.65849 618.95494 568.8125 623.46875 C 583.56619 628.94796 598.41888 628.90826 613.28125 623.34375 C 630.78603 616.78989 670.01792 593.2623 721.5 558.4375 C 740.91847 545.30198 753.91686 535.11987 761.8125 523.84375 L 761.8125 424.75 C 753.70194 387.63758 741.40246 337.17182 737.34375 324.65625 C 732.06773 308.38696 722.94697 291.96884 715.40625 285.15625 C 705.54482 276.24706 691.61698 270.41163 659.96875 261.96875 C 613.48466 249.56806 591.49221 244.79096 575.53125 245 z M 761.8125 276.625 C 757.83795 283.97465 756.84805 292.29035 756.90625 307.09375 C 756.96062 320.9177 757.51415 329.01542 761.8125 349.96875 L 761.8125 276.625 z M 65 538.875 C 57.35551 538.875 31.07946 551.31776 22.1875 559.125 C 15.47514 565.01853 10.51136 576.05631 7.5625 591.65625 C 4.36346 608.57966 4.36338 862.51733 7.5625 879.5 C 11.53301 900.5774 18.13503 911.37867 32.0625 919.53125 C 41.81698 925.24112 72.33396 938.73744 79.53125 940.53125 C 92.72496 943.81953 108.83176 939.4426 146.53125 922.28125 C 180.09266 907.00361 194.91196 895.52478 202.625 878.84375 C 205.69452 872.20535 206.16505 868.13925 206.09375 850.1875 C 206.00106 826.86326 203.04783 812.99291 190.21875 775.6875 C 175.92814 734.13214 140.30591 648.37069 119.09375 604.46875 C 94.73931 554.06335 82.21338 538.875 65 538.875 z M 164.5 542.9375 C 150.97408 542.90842 142.29042 544.09831 137.6875 546.4375 C 127.4038 551.66367 124.12226 557.33733 124.40625 569.5625 C 124.85612 588.92649 131.75011 609.08758 166.0625 691.59375 C 195.31733 761.93874 211.25236 794.16568 222.59375 805.875 C 230.78217 814.32909 232.07737 815.0625 239.09375 815.0625 C 256.0995 815.0625 269.0168 800.05854 325 715.46875 C 378.7749 634.21573 389.4108 614.76754 389.4375 597.46875 C 389.44674 591.47321 388.3697 586.52083 386.375 583.25 C 379.29777 571.645 355.64404 564.35722 299.90625 556.625 C 233.73941 547.44601 190.32221 542.99302 164.5 542.9375 z M 761.8125 556.34375 C 747.84389 563.38262 729.342 574.71007 701.3125 592.5625 C 638.60273 632.50335 623.79074 644.72474 615.03125 663.71875 C 608.96382 676.87535 609.84357 706.49651 617.78125 756.46875 C 631.21126 841.01828 636.89497 857.24212 659.03125 873.875 C 675.77556 886.45643 731.36021 916.3455 750.65625 923.15625 C 754.47311 924.50346 758.11601 925.55091 761.8125 926.21875 L 761.8125 556.34375 z M 451.40625 590.84375 C 425.51394 591.3698 402.82571 616.81525 348.90625 697.0625 C 273.19854 809.73676 254.6493 850.50598 265.0625 881.28125 C 268.71772 892.08397 285.69985 909.01833 301.59375 917.6875 C 328.48206 932.35346 375.72647 952.23003 391.96875 955.71875 C 403.06675 958.10252 421.99051 956.23848 437.65625 951.21875 C 458.28684 944.60816 568.0117 889.49014 582.78125 878.3125 C 611.09576 856.88404 613.27979 843.21608 601.0625 764.84375 C 585.05337 662.14727 582.473 657.40079 523.34375 621.875 C 492.36226 603.26083 480.39024 597.07279 468.25 593.46875 C 462.29098 591.69971 456.78013 590.73457 451.40625 590.84375 z M 626.5 887.4375 C 613.18087 887.25442 600.05055 891.51895 581.21875 899.5625 C 571.30243 903.79802 542.29479 917.72131 516.75 930.5 C 429.54198 974.1255 422.9375 979.64974 422.9375 1009.0938 C 422.9375 1026.327 427.30252 1056.5927 430.78125 1063.4688 C 438.82317 1079.3644 452.33612 1084.171 494.90625 1086.1875 C 531.47889 1087.9202 657.35998 1087.956 691.5625 1086.25 C 708.13211 1085.4235 725.84331 1083.8465 730.90625 1082.75 C 748.56976 1078.9244 758.08366 1071.6192 761.8125 1058.875 L 761.8125 980.03125 C 758.41053 949.70637 749.49982 942.81897 691.25 911.5 C 661.04534 895.25998 643.6246 887.67289 626.5 887.4375 z M 227.5625 910.4375 C 206.9564 910.80334 182.85136 920.54317 135.9375 944.40625 C 111.94175 956.61186 103.00993 964.69099 99.1875 977.5625 C 95.13415 991.21159 92.70075 1014.3464 92.53125 1041 C 92.38773 1063.5708 92.6468 1065.6239 96.125 1070.5 C 102.62366 1079.6106 119.06093 1084.8265 147.59375 1086.8125 C 169.26573 1088.321 370.8402 1086.3987 380.21875 1084.5938 C 394.32202 1081.8797 403.00714 1076.7104 406.9375 1068.6562 C 410.11241 1062.1501 410.12472 1061.3578 407.375 1036.7812 C 402.98516 997.5454 398.86319 987.49308 382 974.9375 C 368.20235 964.66435 283.29978 924.7042 255.3125 915.3125 C 245.56635 912.04199 236.92891 910.27121 227.5625 910.4375 z M 12.03125 930.71875 C 3.8551447 930.99455 2.4643825 936.90312 0.78125 963.6875 C 0.23052781 972.45128 -0.0080442249 985.05408 0 998.625 C 0.017697295 1028.481 1.2435094 1062.9766 3.03125 1071.3125 C 4.25334 1077.0109 6.31283 1080.7 9.9375 1083.75 C 13.784648 1086.9872 14.811788 1087.7972 25.9375 1087.7812 C 29.646071 1087.7759 34.480902 1087.6949 40.90625 1087.5625 C 66.72911 1087.0303 66.73073 1087.0109 70.6875 1082.4062 C 72.86411 1079.8733 75.43602 1074.9817 76.40625 1071.5312 C 78.97636 1062.3912 83.31942 1014.8078 83.625 992.46875 C 83.86073 975.23503 83.48377 972.52217 80.0625 966.46875 C 77.96092 962.75031 72.71822 957.30028 68.40625 954.375 C 55.56283 945.66191 24.48764 931.75007 15.96875 930.90625 C 14.503035 930.76107 13.199265 930.67935 12.03125 930.71875 z "
       transform="translate(-99.331245,-399.13995)"
       id="path4336" />
  </g>
</svg>
