<?xml version="1.0" encoding="UTF-8" standalone="no"?>
<svg
   xmlns:dc="http://purl.org/dc/elements/1.1/"
   xmlns:cc="http://creativecommons.org/ns#"
   xmlns:rdf="http://www.w3.org/1999/02/22-rdf-syntax-ns#"
   xmlns:svg="http://www.w3.org/2000/svg"
   xmlns="http://www.w3.org/2000/svg"
   xmlns:sodipodi="http://sodipodi.sourceforge.net/DTD/sodipodi-0.dtd"
   xmlns:inkscape="http://www.inkscape.org/namespaces/inkscape"
   width="988pt"
   height="655pt"
   viewBox="0 0 988 655"
   version="1.1"
   id="svg8170"
   inkscape:version="0.48.1 r9760"
   sodipodi:docname="N71.902E95.695S71.782W95.148.svg">
  <metadata
     id="metadata8212">
    <rdf:RDF>
      <cc:Work
         rdf:about="">
        <dc:format>image/svg+xml</dc:format>
        <dc:type
           rdf:resource="http://purl.org/dc/dcmitype/StillImage" />
      </cc:Work>
    </rdf:RDF>
  </metadata>
  <sodipodi:namedview
     pagecolor="#ffffff"
     bordercolor="#666666"
     borderopacity="1"
     objecttolerance="10"
     gridtolerance="10"
     guidetolerance="10"
     inkscape:pageopacity="0"
     inkscape:pageshadow="2"
     inkscape:window-width="1680"
     inkscape:window-height="980"
     id="namedview8210"
     showgrid="false"
     inkscape:zoom="0.44331267"
     inkscape:cx="125.00924"
     inkscape:cy="243.31277"
     inkscape:window-x="0"
     inkscape:window-y="22"
     inkscape:window-maximized="1"
     inkscape:current-layer="svg8170" />
  <defs
     id="defs8172">
    <clipPath
       id="clip1">
      <path
         d="M 0 0 L 988 0 L 988 655 L 0 655 Z M 0 0 "
         id="path8175" />
    </clipPath>
  </defs>
  <g
     id="g8178"
     clip-rule="nonzero"
     clip-path="url(#clip1)">
    <rect
       id="rect8180"
       style="fill:#b3cfcf;fill-opacity:1;stroke:none"
       height="655"
       width="988"
       y="0"
       x="0" />
    <path
       inkscape:connector-curvature="0"
       id="path8182"
       d="m -1172.8594,725.20312 0,-815.23437 1630.43752,0 0,1630.46875 -1630.43752,0 0,-815.23438"
       style="fill:#f0eee8;fill-opacity:1;fill-rule:nonzero;stroke:none" />
    <path
       inkscape:connector-curvature="0"
       id="path8184"
       d="m 452.71094,725.20312 0,-815.23437 1630.46876,0 0,1630.46875 -1630.46876,0 0,-815.23438"
       style="fill:#f0eee8;fill-opacity:1;fill-rule:nonzero;stroke:none" />
    <path
       inkscape:connector-curvature="0"
       id="path8186"
       d="m 5329.5156,-900.39844 0,-815.23436 1630.4688,0 0,1630.468738 -1630.4688,0 0,-815.234378"
       style="fill:#f0eee8;fill-opacity:1;fill-rule:nonzero;stroke:none" />
    <path
       inkscape:connector-curvature="0"
       id="path8188"
       d="m 768.99609,135.11328 1.35547,-7.25781 0.90235,-1.44922 0.90234,-1.45312 1.80859,1.45312 -0.90625,4.35156 1.35547,2.90625 14,-4.35547 22.57813,11.61328 1.35156,1.44922 10.83984,-5.80468 1.80469,-1.45313 -5.87109,-1.44922 -1.35157,-4.35547 -1.80859,0 -1.35547,-4.35546 -1.80469,0 0,-2.90235 -3.16015,-5.80859 -2.25781,-4.35547 3.16015,-7.25781 0,-2.90625 0.45313,-1.44922 1.80468,-1.453128 0.90235,0 -1.35547,-5.808593 0.45312,-1.449219 4.96875,-8.714844 0.44922,-1.453125 2.71094,-2.902343 3.16016,2.902343 1.80468,-1.453125 2.71094,0 -0.45312,-2.902344 -6.32032,0 -0.90234,0 -2.71094,-4.355468 -0.44922,-2.90625 4.0625,1.453125 1.35547,-4.359375 7.22266,-1.449219 2.71094,-5.8125 -1.80469,-2.902344 -2.71094,0 -0.90234,4.355469 -0.90235,0 -1.80859,1.453125 -8.12891,-4.359375 -2.70703,2.90625 -6.77343,-1.453125 -3.61329,0 -6.77343,-2.902344 -1.80469,-4.359375 -1.80859,-2.90625 0,-2.90625 1.35546,-2.902344 0.90235,-1.453124 6.77344,-2.90625 -3.16016,0 -4.51563,-4.359376 0.90235,-2.90625 5.41797,-2.90625 1.35547,-2.902343 -0.44922,-1.453125 0.44922,-2.90625 3.61328,-2.90625 2.25781,-2.90625 -4.0625,-4.359375 -0.45313,-8.71875 0.45313,-7.269531 2.70703,0 2.25781,-4.359376 0.90235,-1.453124 4.96875,2.90625 0.90234,0 13.54688,15.988281 2.71093,5.8125 0.90235,1.453125 9.48047,4.359375 3.61328,5.8125 0.90234,0 1.35547,1.453125 3.61328,0 2.25781,1.449218 2.71094,7.265626 0,2.90625 -0.45312,1.453124 -4.51563,7.261719 -7.67578,2.90625 1.35547,4.359375 21.67187,-1.453125 0.90625,0 2.70703,-5.8125 -5.41796,-8.714843 -0.45313,-1.453126 4.06641,-10.167968 -0.45313,-1.453125 1.35547,-4.359375 -8.12891,1.453125 -2.25781,-1.453125 -1.35547,-2.90625 7.67969,0 0,-2.90625 -1.35547,-2.90625 -0.45312,-1.453125 0.45312,-4.359375 0.90235,-1.453125 -1.80469,-2.90625 -0.45313,-4.359375 3.16016,-4.363282 10.83984,0 0.90235,0 2.70703,5.8164068 0.90234,0 3.16406,-7.2695308 0.44922,-1.453126 2.71094,2.90625 -0.90234,2.90625 1.35156,2.9101568 4.51562,1.4531252 1.8086,1.453125 -1.35547,-5.816407 1.80469,-2.90625 0.45312,-1.453124 -2.71094,0 -0.90234,-2.90625 1.35547,-2.90625 7.22656,-5.8125 2.70703,1.453124 6.77344,-2.910156 1.80859,-2.90625 -9.9375,-2.90625 0.45313,-2.90625 3.61328,0 0.90234,-5.816406 1.35547,-1.453125 1.80469,0 1.35547,2.90625 0.45312,1.453125 3.60938,0 2.71094,-1.453125 -4.0625,-2.90625 -1.8086,-4.363281 -2.70703,-8.722656 9.02735,5.816406 1.80859,5.816406 0.90234,0 15.35157,-15.996094 2.71093,2.910156 8.57813,-2.910156 2.25781,2.910156 -2.25781,4.363282 -9.03125,2.90625 -5.86719,4.363281 -0.90625,2.90625 2.71094,4.359375 5.41797,0 0.90234,0 0,-2.90625 -2.70703,0 -0.90234,0 -0.90625,-2.90625 0.45312,-1.453125 8.12891,0 1.80468,1.453125 1.35547,2.90625 -0.45312,2.90625 -0.44922,1.457031 -4.51563,0 -0.45312,1.453125 1.80859,2.90625 2.25782,-2.90625 0.90234,0 0,4.359375 -0.90234,0 -1.8086,5.816407 -3.16015,2.90625 -4.0625,-1.453126 -0.90625,0 -5.41797,8.71875 -0.90235,1.453126 -9.48437,-2.90625 -1.80469,0 1.35547,5.8125 3.61328,5.816406 0.44922,1.453125 -0.90234,4.359375 0.45312,2.90625 -1.35547,4.359375 -5.87109,2.90625 -0.90235,0 -0.45312,1.453125 0.90625,1.453125 0.44922,1.453125 -2.25781,7.261718 -2.70704,1.453126 -0.45312,1.453124 0.45312,2.90625 -1.35546,1.453126 0,5.8125 -3.16016,4.355468 -3.16406,0 0,2.90625 3.16406,2.90625 0.44922,5.808594 0.90234,1.453125 2.71094,4.359375 6.32031,0 6.77344,8.714844 3.16016,14.519531 -2.70704,10.164063 2.70704,2.906252 -0.44922,2.90234 -3.16016,4.35547 -0.45312,1.45313 2.25781,5.80859 -0.45313,2.90234 3.61328,0 5.41797,5.80469 0.90625,0 1.80469,-1.44922 -4.51562,-4.35547 -0.90235,-1.45312 0.90235,-2.90235 4.51562,-5.80859 2.71094,0 2.70703,0 4.96875,1.45313 6.32031,8.71093 0.90235,0 1.80859,1.45313 13.09375,2.90234 1.80469,0 1.35547,4.35547 -3.61329,4.35156 -0.44921,1.45313 1.35546,4.35547 1.80469,0 0.90235,0 0.45312,1.44921 -0.45312,1.45313 -0.90235,5.80469 7.67578,-1.44922 1.35547,1.44922 1.35547,2.90234 -0.45312,2.90234 -4.0625,4.35547 -0.45313,2.90235 9.48438,-2.90235 6.77343,1.44922 3.61328,2.90235 2.25782,8.70703 -2.71094,5.80468 -0.90234,1.45313 -15.80469,7.25391 -1.35547,1.44921 -8.12891,0 -3.61328,-8.70312 -0.90234,-1.45313 2.25781,-2.90234 0,-4.35156 0.45313,-1.45313 1.80468,-1.44922 0,-1.45312 -6.32031,2.90234 -9.03125,-2.90234 -0.90234,0 -13.54688,5.80469 -0.90234,0 -6.77344,-4.35157 -9.03125,0 -18.96484,-8.70703 -3.61328,0 -5.41797,-11.60937 0.90234,-4.35547 0.90234,0 0.45313,1.45312 -0.45313,1.44922 3.61329,0 1.80468,0 0.90235,-1.44922 -1.35157,-2.90625 0.44922,-1.44921 4.51563,-1.45313 1.35547,-1.44922 -2.71094,-5.80859 -0.90234,-4.35547 1.35546,-5.80469 -10.38671,8.71094 -9.03125,0 -0.90235,0 -1.80469,2.90234 0.90235,5.80469 -0.45313,1.45313 -9.93359,10.16015 -1.35547,1.44922 -6.77344,-1.44922 -11.73828,-13.0625 -1.80859,0 -0.44922,1.44922 1.80469,1.45313 0.90234,1.44921 0,5.8086 0,2.90234 4.06641,5.80469 0.44922,1.44922 -1.35157,5.80469 1.80469,2.90234 -4.96875,14.51172 -6.77344,2.90234 -2.70703,1.44922 -9.48437,-4.35156 -2.70703,-2.90235 -1.35547,-4.35156 -0.45313,-1.45312 -4.96484,-1.44922 -0.90235,-1.45313 -1.80859,-2.90234 -11.73828,5.80469 -18.0625,0 -0.90234,-2.90235 -9.03125,-1.44922 -3.61329,0 -3.16015,-5.80468 -1.35547,-8.70703 -0.90234,-1.45313 0,-7.25391 0.90234,-1.45312 -4.06641,-1.45313 -4.0625,-2.90234"
       style="fill:#b3cfcf;fill-opacity:1;fill-rule:nonzero;stroke:none" />
    <path
       inkscape:connector-curvature="0"
       id="path8190"
       d="m 166.17187,97.367188 1.35547,-2.902344 2.70703,0 0.90625,0 -1.35546,-8.710938 0,-2.90625 0.44921,-2.90625 -0.90234,0 -0.44922,-1.449218 1.35156,-4.359376 -0.90234,-2.902343 1.35547,-8.714844 -0.90234,-14.527344 1.35546,-4.355469 6.76954,-5.8125 0.45312,-1.453124 8.12891,-2.90625 4.0625,-5.808594 1.80859,0 14.44922,-23.25 4.51562,-4.3593752 1.80469,-1.4531248 18.51563,-5.816406 7.22265,1.453124 1.8086,0 19.41406,14.535157 6.77344,8.71875 0.45312,1.453125 4.51563,1.453125 0.90234,0 9.93359,14.527343 0.90235,0 3.16406,8.71875 4.51563,2.902344 4.96484,11.621094 1.35547,2.90625 1.80469,10.167969 -1.80469,14.523437 -0.90235,5.808594 -1.35546,2.902344 -0.90235,0 0.90235,4.355468 0.45312,1.453128 -2.71094,11.61328 -3.61328,10.16406 -0.90234,1.44922 0,2.90625 -8.12891,8.70703 -4.0625,8.71094 -1.35547,1.44922 4.0625,4.35547 0.45313,5.80468 -1.35547,2.90235 -5.87109,4.35156 -3.60938,-1.44922 -0.90625,0 -7.67578,7.25391 -0.44922,1.45312 -13.54687,-2.90234 -0.90235,0 -5.87109,8.70703 -0.45313,1.44922 -4.51562,-1.44922 -1.80469,-2.90234 -0.90234,-1.45313 -4.51563,1.45313 -1.35547,2.90234 -0.90234,1.44922 -4.51563,0 -3.61328,0 -4.0625,-4.35156 -2.25781,1.44921 -3.61328,-4.35156 -1.80859,0 -0.90235,-1.45312 0.45313,-2.90235 -1.8086,0 -0.90234,0 -3.16016,-8.70703 -4.0625,-5.80469 -0.90625,-1.44921 1.8086,-5.80469 -0.90235,-2.90235 -4.51562,-4.35546 0.44922,-1.45313 -2.25782,-5.80469 -0.44921,-1.45312 -2.71094,-1.44922 -4.0625,-8.71094 -1.8086,-4.35547 -4.96484,-5.80859 -2.25781,0 0,-2.90234 1.80469,-1.45313 0.45312,-1.45312 -6.32422,-1.44922 -1.80469,-2.906252"
       style="fill:#b3cfcf;fill-opacity:1;fill-rule:nonzero;stroke:none" />
    <path
       inkscape:connector-curvature="0"
       id="path8192"
       d="m 801.05469,294.66016 3.16406,-11.59375 8.125,-1.44922 0.90625,-1.44922 -6.77344,0 -0.45312,-1.44922 -0.45313,-1.44922 1.35547,-4.35156 3.61328,0 1.35547,-5.79688 4.0625,1.44922 0,4.34766 -0.90234,0 0.45312,1.44922 1.80469,0 4.51562,-7.2461 16.25782,-5.80078 2.25781,-2.89844 1.35156,-2.89843 -1.80469,-7.25 -0.45312,-1.45313 5.41797,-10.14844 0.90625,-2.90234 -0.45313,-1.44922 0,-4.35156 5.41797,-7.25 2.25781,-2.90234 11.74219,-7.25 16.25391,0 6.77344,2.89843 1.80859,0 0.44922,-1.44922 -0.90235,-1.44921 1.80469,-8.70313 0.45313,-1.45312 2.71093,-2.89844 0.90235,-1.45313 3.61328,0 4.0625,-2.89843 0.90234,-1.45313 4.06641,1.45313 3.60937,0 5.42188,4.35156 -0.45313,1.44922 0.45313,2.90234 1.80469,0 0.90234,0 0,2.90234 -1.35547,1.44922 -0.90234,1.44922 3.16015,1.45313 0.90235,2.89843 4.51562,0 1.35547,-2.89843 1.8086,0 1.80468,-1.45313 4.51563,1.45313 1.35547,1.44922 -12.19141,8.70312 -3.61328,0 -2.71094,-5.80469 -0.90234,0 -2.25781,-1.44922 0.45312,5.80079 -3.61328,4.35156 -0.90234,4.35156 -0.90235,2.90234 0.90235,4.34766 -0.90235,4.35156 -8.1289,-1.44922 -1.35547,-4.35156 -0.90235,0 -0.90234,0 -0.90625,-2.89844 0.45312,-1.45312 -4.0625,-2.89844 -2.71093,0 3.16015,2.89844 1.8086,5.80078 1.35156,1.45313 0.90625,0 0.44922,1.44921 1.35547,2.89844 1.80468,8.70313 2.25782,4.34765 0.45312,1.44922 -0.90234,2.90235 0.90234,4.34765 2.71094,4.35156 2.70703,1.44922 1.35547,1.44922 -3.16016,4.34766 3.16016,2.90234 -0.45313,2.89844 -2.70703,0 -0.90234,0 2.70703,2.89844 -0.90234,2.89843 1.80468,10.14454 -0.44921,1.44921 6.32031,13.04688 0.90234,17.38672 1.8086,4.34765 -0.45313,1.44922 0,2.89844 3.61328,2.89453 3.16016,10.14453 1.35547,2.89453 -0.45313,1.44922 0.90235,2.89844 0.90625,1.44922 -0.45313,1.44531 -0.90234,4.34766 -3.16016,10.13672 -1.80859,0 -2.70703,4.34765 -0.90625,1.44532 -0.90235,7.24218 -4.51562,7.24219 -1.80469,4.34375 -9.03125,4.34375 -4.96875,0 -2.70703,0 -12.64453,-5.79297 -4.0625,-5.79297 -4.51563,-2.89453 -1.80859,0 -4.96485,-7.24219 -2.25781,-1.44921 -0.90234,0 -4.51563,-8.6875 -0.90625,-1.44922 -1.80468,0 -0.90235,0 -0.45312,-4.34375 -5.41797,-8.69141 -1.80469,-2.89844 -9.03125,-4.34375 -2.71094,-7.24609 -2.25781,-2.89844 -5.41797,0 -9.03125,-7.24219 -1.80469,0 -1.35546,-4.34765 -2.71094,-1.44922 -0.90235,-1.44922 0,-2.89844 -2.71093,-1.44922 -0.90235,0 -0.44922,-4.34375 -3.61328,-5.79687 -0.45312,-1.44922 0.45312,-2.89844 -0.90234,-4.34765 -3.16406,-5.80078"
       style="fill:#b3cfcf;fill-opacity:1;fill-rule:nonzero;stroke:none" />
    <path
       inkscape:connector-curvature="0"
       id="path8194"
       d="m -23.03125,333.78906 0.90625,-5.79687 0.449219,-1.44922 1.808593,0 0.449219,-1.44922 0.453125,-1.44922 3.613282,0 0.902343,1.44922 L -14,323.64453 -14.902344,322.19531 -14,319.29687 l 2.257812,-2.89843 -2.707031,-5.79297 1.804688,-4.34766 -2.257813,-2.89844 -0.449218,-1.44921 1.351562,-8.69922 7.226562,-10.14453 12.644532,-8.69922 0.902344,0 0.453124,-1.44922 -0.90625,0 0,-5.79688 8.582032,-5.80078 10.382812,4.35156 6.324219,0 6.773437,-2.90234 0.902344,-1.44922 1.804688,1.44922 3.613281,0 4.515625,5.80078 -0.902344,2.89844 0.453125,2.89844 0,2.90234 1.804688,2.89844 0.453125,4.34765 -9.03125,0 -0.453125,1.44922 -0.453125,1.44922 -1.351563,-4.34765 -4.066406,1.44921 -1.355469,-4.34765 -3.609375,1.44922 0.449219,4.34765 4.066406,5.79688 -0.453125,1.44922 -9.03125,1.44922 -4.96875,2.90234 -2.707031,2.89844 -2.257812,-2.89844 4.515624,-5.80078 -2.257812,-2.89844 1.355469,-2.89844 -3.613281,1.44922 -1.804688,0 -2.257812,5.79688 -10.386719,7.25 -0.902344,0 -1.355469,2.89843 -0.453125,5.79688 -4.0625,-1.44922 -1.355469,1.44922 -1.355468,1.44922 0,2.89844 2.257812,-1.44922 0.902344,2.89843 1.355469,1.44532 0,4.34765 -0.902344,7.2461 3.160156,5.79687 2.257813,0 0.453125,1.44922 L 14,332.33984 l 0.902344,0 -1.808594,-2.89843 -6.320312,0 -4.515626,-4.34766 -1.355468,1.44922 -1.804688,-10.14453 0.449219,-1.44532 1.355469,-2.89843 1.808594,1.44922 1.351562,-2.89844 2.710938,0 1.804687,0 3.613281,2.89844 0.902344,0 1.808594,5.79296 0,2.89844 0,4.34766 11.289062,-2.89844 0.902344,0 4.0625,-11.58984 -5.417969,-8.69532 -0.453125,-1.44921 0.453125,-1.44922 1.804688,-2.89844 12.644531,8.69531 0,-4.34765 -0.902344,-1.44922 -0.453125,-1.44922 0.453125,-1.44922 0.453125,-1.45313 4.0625,-1.44921 6.320313,2.90234 0.90625,0 3.160156,-4.35156 1.804688,1.44922 0.902343,0 5.417969,-5.79688 2.710938,5.79688 0.453124,1.44921 -0.453124,1.45313 1.804687,1.44922 0.90625,1.44922 -1.355469,5.79687 2.257813,2.89844 3.613281,13.03906 -2.710938,8.69531 -8.578124,4.34766 -2.257813,-1.44922 -0.902344,0 -2.710937,4.34375 -0.902344,1.44922 -9.03125,0 -6.324219,4.34766 -1.804687,0 -1.804688,-2.89844 0.449219,-1.44922 5.871094,-5.79297 -0.453125,-1.44922 -2.257813,-1.44922 -2.257812,2.89844 -0.449219,1.44922 -2.257812,-4.34766 0.902343,-2.89843 0.453125,-1.44922 -3.613281,1.44922 -3.613281,0 -4.0625,1.44922 -0.90625,1.44921 0.90625,1.44922 -0.453125,2.89844 -0.902344,0 -1.808594,1.44922 -16.253906,2.89453 -0.902344,0 1.804688,2.89844 0,2.89844 1.355469,2.89843 -2.257813,5.79297 13.09375,0 9.933594,5.79297 5.871093,-1.44922 29.351563,7.24219 2.257813,1.44922 14.902343,-2.89453 0.902344,0 6.773437,5.79297 2.257813,8.6875 2.710937,5.79296 3.160157,15.92969 -0.453125,8.6875 -2.707032,11.58203 -0.453124,1.44922 -5.417969,5.78906 -0.453125,1.44922 -20.769532,11.57813 -4.515624,0 -0.90625,0 -5.867188,5.78906 -5.417969,1.44922 -1.808593,1.44531 -18.511719,-1.44531 -1.808594,0 -5.871094,-7.23828 -4.515625,-11.57813 -4.964844,-5.79297 L 9.03125,417.78906 7.675781,416.33984 7.226562,414.89453 6.773438,411.99609 0,403.3125 l -0.453125,-2.89844 -8.578125,-8.6875 -0.902344,-1.44922 -2.710937,-10.13672 0,-7.24218 -0.449219,-1.44532 2.257812,-10.14062 0.449219,-1.44922 1.808594,-1.44922 -6.324219,0 -0.902344,-2.89453 0.902344,-2.89844 -0.449218,-2.89843 -2.257813,-4.34375 -0.90625,0 -4.0625,-7.2461 -0.453125,-4.34375"
       style="fill:#b3cfcf;fill-opacity:1;fill-rule:nonzero;stroke:none" />
    <path
       inkscape:connector-curvature="0"
       id="path8196"
       d="m 51.929688,513.29687 1.355468,-4.33984 5.417969,-1.44531 4.0625,-4.33985 1.355469,-2.89453 4.515625,4.33985 7.222656,-4.33985 1.355469,-5.78515 1.355468,-1.44532 4.515626,-1.44921 2.257812,-1.44532 4.515625,2.89453 4.0625,-4.34375 7.675785,-1.44531 1.80859,-1.44531 4.96484,4.33984 6.32422,-1.44922 1.35547,1.44922 2.25781,-2.89453 0.44922,-2.89453 0.45313,-1.44531 1.80469,0 0.90234,-1.44531 4.06641,1.44531 0.90234,1.44531 0.45312,1.44922 1.80469,-1.44922 3.16016,-1.44531 5.87109,7.23437 2.70703,11.57422 1.8086,1.44531 2.25781,7.23438 0.90234,2.89062 -0.45312,1.44532 0.45312,1.44922 1.80469,4.33984 -1.35156,8.67578 0.90234,7.23047 -0.90234,4.33984 -1.35547,13.01563 -5.8711,20.23828 -5.87109,14.45703 -0.90234,0 0.90234,2.89063 -0.44922,2.89062 5.41797,11.5625 -0.90234,2.89063 -11.74219,5.78125 -0.90234,0 -4.51563,-5.78125 -1.35547,1.44531 -4.0625,-4.33594 -1.80859,0 -6.32031,-8.67187 -0.45313,-1.44532 4.06641,-7.22656 14.44922,-8.67187 0.45312,-1.44922 -12.19531,0 -4.96484,-2.89063 -0.90235,0 -3.61328,2.89063 -5.417969,0 -0.902343,-1.44532 -5.871094,2.89454 -0.902344,1.44531 -9.03125,-1.44531 -1.808594,0 -6.320312,-7.23047 -8.582032,-17.34766 -0.902343,-1.44531 -9.03125,-26.03125 0,-7.23047 -2.707031,-7.23438"
       style="fill:#b3cfcf;fill-opacity:1;fill-rule:nonzero;stroke:none" />
    <path
       inkscape:connector-curvature="0"
       id="path8198"
       d="m -74.054688,503.17187 2.257813,-13.01953 -2.257813,-4.33984 1.804688,-7.23438 4.96875,-2.89453 0.449219,-1.44922 30.707031,-4.33984 0.902344,0 11.289062,5.78906 10.386719,-1.44922 4.0625,2.89454 1.808594,0 2.257812,7.23437 3.160157,-1.44531 3.160156,2.89453 1.355468,1.44531 2.257813,7.23438 2.257813,11.57422 2.257812,5.78515 0.453125,5.78516 0.449219,1.44531 -0.902344,2.89453 -0.902344,10.125 0.449219,1.44531 -1.351563,5.78516 -0.90625,2.89063 -7.675781,7.23046 -9.480469,1.44532 -1.808593,0 -7.222657,-4.33594 -14.902343,-2.89453 -0.902344,0 -8.128906,-7.23047 -1.804688,-4.33594 0.449219,-1.44922 -8.128906,-11.57031 -1.351563,-2.89062 -13.546875,-2.89454 -1.808594,0 -4.0625,-10.125"
       style="fill:#b3cfcf;fill-opacity:1;fill-rule:nonzero;stroke:none" />
    <path
       inkscape:connector-curvature="0"
       id="path8200"
       d="m 228.9375,432.26562 3.16016,-7.23828 -0.44922,-1.44922 0,-5.78906 3.16015,-1.44922 0.44922,-1.44531 -1.80469,-2.89844 0,-8.68359 4.96875,-13.03516 1.80469,-1.44531 0.90235,-1.44922 17.16015,1.44922 1.35547,1.44531 0.44922,1.44922 7.22656,0 2.25781,-2.89453 2.70704,0 9.9375,5.78906 10.83593,2.89844 0.90235,0 14,10.13672 0.90234,1.44531 2.70703,0 0.45313,-1.44531 0.90234,-1.44922 -2.70703,-2.89453 1.35156,-4.34766 1.35547,-1.44531 10.38672,1.44531 6.32031,5.79297 2.71094,13.03125 0,5.78906 -1.80469,2.89844 0,2.89453 -0.45312,2.89453 -1.35547,1.44532 -4.51563,2.89843 -1.80468,0 -0.45313,-1.44921 -5.41797,4.34375 -0.45312,1.44531 -7.22266,0 -18.96484,7.23828 -2.71094,1.44531 2.71094,7.23828 3.61328,0 0.90234,1.44532 -2.71094,5.78906 -1.80468,0 -2.71094,1.44922 -3.61328,-4.34375 -8.125,-4.33985 -0.90625,0 -1.80469,-2.89453 -0.90234,-1.44922 -8.58203,-4.33984 -0.90235,0 -0.44922,-1.44922 -0.45312,-1.44531 -5.8711,1.44531 -0.90234,0 -10.38672,-11.57812 -1.35156,-14.47657 -2.71094,-1.44531 -4.0625,5.78906 0.90235,2.89453 -2.25782,4.34375 0.44922,4.34375 -3.60937,-1.44921 -1.8086,0 -0.90234,-2.89454"
       style="fill:#b3cfcf;fill-opacity:1;fill-rule:nonzero;stroke:none" />
    <path
       inkscape:connector-curvature="0"
       id="path8202"
       d="m 605.98437,646.29297 4.06641,-11.5586 1.80469,-1.44531 0.45312,-1.44531 13.54688,-4.33594 4.51562,-4.33594 0.90235,-1.44531 3.16015,1.44531 3.16016,-2.88671 2.25781,-1.44532 8.57813,4.33203 2.25781,7.22657 -0.44922,1.44531 0.44922,2.89062 1.80859,1.44141 0.44922,1.44531 -0.90234,4.33594 3.16015,14.44531 0,2.89063 2.25782,5.77734 0.45312,1.44531 -0.90234,4.33204 -0.45313,2.89062 2.71094,4.33203 0.90234,1.44531 -2.71093,7.21875 -0.44922,1.44532 -14.44922,11.55078 -10.38672,0 -1.80469,0 -4.96875,-4.33203 -0.90234,-2.88672 0.44922,-2.88672 -2.25781,0 -0.90235,-4.33203 -4.0625,-5.77735 -2.71094,-4.33593 0,-2.88672 0.90235,0 0.90625,0 -4.06641,-4.33203 -0.90234,-10.11328 -2.25781,-2.88672 0.90234,-5.78125 -2.25781,-1.44532 -2.25782,-1.4414"
       style="fill:#b3cfcf;fill-opacity:1;fill-rule:nonzero;stroke:none" />
    <path
       inkscape:connector-curvature="0"
       id="path8204"
       d="m 314.04687,487.35547 -7.75,15.19531 -5.26953,6.19922 -8.375,3.10156 -13.95312,-6.51172 -10.23047,-17.67187 -12.71094,-13.95313 -9.92187,-8.68359 -17.98438,-2.78906 -11.78125,11.47265 2.16797,10.23047 4.96094,16.4336 7.13281,18.29296 8.68359,15.50391 43.40625,26.35547 8.3711,10.85156 2.17187,16.1211 -7.7539,17.98437 -11.78125,5.89063 -15.8125,1.85937 -18.29297,-11.16016 -13.33203,-13.02343 -17.05469,-9.92188 -13.95313,3.72266 -5.89062,7.1289 -0.30859,16.7461 4.03125,10.53906 8.05859,16.125 1.55078,22.01172 -8.67969,37.20703 0,15.50391 2.48047,34.41797 -6.51172,10.23046 -30.38672,14.88282 -13.64062,13.02343 -27.59766,59.83985 -13.33203,4.33984 -22.63281,-24.18359 -16.742188,-17.05078 -21.707031,3.71875 -4.648437,7.13281 4.03125,16.43359 4.339844,9.91797 4.652343,21.08594 -1.550781,23.5625 -22.945312,20.77734 -13.644532,6.82032 -8.371094,22.63281 0.621094,25.42578 4.03125,19.84375 0.929688,23.25395 19.84375,34.7265 13.953125,8.0625 35.035156,5.8906 33.796875,-0.3125 26.97656,15.1954 1.85938,19.8437 -5.58203,15.1914 -14.26172,8.9922 -17.05469,1.5508 -24.492188,-4.0313 -18.914062,11.4727 0.308594,10.2305 4.652344,8.6836 14.882812,13.6406 8.0625,26.9765 -5.273438,17.9844 -11.472656,5.8906 -10.539062,0.6172 -22.636719,-10.539 -9.609375,-7.4414 -11.164062,-4.961 -15.191407,-0.9336 -12.710937,9.9258 -6.824219,27.5938 -10.230469,28.5234 -13.023437,32.8672 -21.394531,30.6953 -16.433594,1.5508"
       style="fill:none;stroke:#b3cfcf;stroke-width:1.60000002;stroke-linecap:butt;stroke-linejoin:miter;stroke-miterlimit:4;stroke-opacity:1" />
    <path
       inkscape:connector-curvature="0"
       id="path8206"
       d="m 1165.1563,247.0625 -15.8125,13.33203 -7.4415,21.39453 -12.4023,31.625 -35.0391,13.33203 -37.207,0.3125 -22.3242,3.41016 -18.293,30.69531 -7.75,66.66016 -13.33201,14.57422 -20.77344,8.67968 -13.95313,0 -38.44921,16.125 -20.77344,15.19141 -34.10547,35.96875 -17.36328,5.89063 -10.54297,-8.6836 -2.48047,-13.94922 5.58203,-20.15625 32.2461,-24.18359 10.85156,-10.23047 1.85937,-17.98437 -6.19922,-11.16407 -11.78125,-8.05859 -18.91406,-8.0625 -17.67578,-7.75 -20.77344,-2.79297 -40.61718,14.26172 -29.76563,-8.67969 -18.91016,-1.55078 -19.22656,8.37109 -17.36328,13.33204 -13.64062,13.02343 -19.84375,6.51172 -25.73438,-5.26953 -8.68359,-15.50391 -1.55078,-17.98437 -2.16797,-17.67188 -4.96094,-18.91406 -10.54297,-7.13281 -19.53516,-7.75 -9.60937,-13.64453 7.75,-12.08985 10.85156,-3.10156 18.29297,-1.24219 5.89063,-7.4414 -9.92188,-9.30078 -13.64062,-3.41016 -20.46485,1.24219 -14.88281,7.1289 -13.64063,17.36329 -10.54296,21.08593 -12.71094,29.14453 -0.92969,65.73047 7.44141,29.76563 -7.13282,15.8125 -16.43359,4.96094 -35.96484,-7.75 -26.97657,-6.51172 -9.30078,4.33984 -7.13281,8.68359 -8.99219,16.1211 -3.71875,11.16406 -5.58203,8.0625 -10.54297,4.33984 -13.33203,-2.78906 -8.99219,-12.40625 -1.55078,-21.39062 -0.30859,-17.98438 -4.03125,-32.24609 -9.30078,-1.85938 -20.15235,18.91407 -9.30468,12.71093 -10.85157,17.67188"
       style="fill:none;stroke:#b3cfcf;stroke-width:1.60000002;stroke-linecap:butt;stroke-linejoin:miter;stroke-miterlimit:4;stroke-opacity:1" />
    <path
       inkscape:connector-curvature="0"
       id="path8208"
       d="m 1117.0977,-353.21094 1.2382,10.23438 14.8829,19.84375 3.1015,12.71094 -0.6211,18.29296 -24.4922,-8.05859 -24.8047,-16.74609 -29.7656,-19.53125 -34.418,-14.26563 -11.1601,15.81641 0,30.38281 21.082,23.56641 8.3711,39.99609 -16.1211,11.47266 -13.6445,-0.3086 -18.29298,-24.80468 -20.77343,-12.71485 -20.46485,17.36328 6.51172,33.48828 18.91406,26.66407 31.31638,28.21484 46.5078,16.43359 35.0352,7.44141 17.9844,-8.37109 40.6172,0 28.2148,-11.16407 12.7149,-17.98046 17.0507,0 12.0938,15.5 18.914,31.625 11.1602,13.95312 19.2227,-1.85938 25.4257,-17.05078 9.6133,-20.15625 18.293,-11.47265 13.0234,21.39453 0.3086,17.05469 -6.1992,10.53906 -12.4023,16.124999 -3.1016,11.164062 7.4414,38.753907 3.1016,22.636718 1.5468,26.9726565 -5.8906,11.1640625 -13.6406,5.582031 -20.7734,-2.171875 -24.4961,-11.78125 -26.3555,-13.023437 -27.9024,8.679687 -4.6523,37.519531 5.582,9.300782 11.4727,8.992187 17.6719,0.308594 12.4023,-2.789063 23.5625,1.238282 9.6133,11.472656 7.1328,13.332031 7.1289,26.046879 -18.9141,61.39062 -7.1289,13.95313 -11.7851,35.65625 -29.7656,20.46484 -20.7735,5.57812 -27.5937,4.65235 -14.2617,1.55078"
       style="fill:none;stroke:#b3cfcf;stroke-width:1.60000002;stroke-linecap:butt;stroke-linejoin:miter;stroke-miterlimit:4;stroke-opacity:1" />
  </g>
</svg>
