<?xml version="1.0" encoding="UTF-8" standalone="no"?>
<!-- Created with Inkscape (http://www.inkscape.org/) -->
<svg
   xmlns:dc="http://purl.org/dc/elements/1.1/"
   xmlns:cc="http://creativecommons.org/ns#"
   xmlns:rdf="http://www.w3.org/1999/02/22-rdf-syntax-ns#"
   xmlns:svg="http://www.w3.org/2000/svg"
   xmlns="http://www.w3.org/2000/svg"
   xmlns:xlink="http://www.w3.org/1999/xlink"
   xmlns:sodipodi="http://sodipodi.sourceforge.net/DTD/sodipodi-0.dtd"
   xmlns:inkscape="http://www.inkscape.org/namespaces/inkscape"
   version="1.0"
   width="2104.7244"
   height="1488.189"
   id="svg2"
   style="display: inline;"
   sodipodi:version="0.32"
   inkscape:version="0.46"
   sodipodi:docname="final_poster.svg"
   inkscape:output_extension="org.inkscape.output.svg.inkscape">
  <metadata
     id="metadata119">
    <rdf:RDF>
      <cc:Work
         rdf:about="">
        <dc:format>image/svg+xml</dc:format>
        <dc:type
           rdf:resource="http://purl.org/dc/dcmitype/StillImage" />
      </cc:Work>
    </rdf:RDF>
  </metadata>
  <sodipodi:namedview
     inkscape:window-height="774"
     inkscape:window-width="1274"
     inkscape:pageshadow="2"
     inkscape:pageopacity="0.0"
     guidetolerance="10.0"
     gridtolerance="10.0"
     objecttolerance="10.0"
     borderopacity="1.0"
     bordercolor="#666666"
     pagecolor="#ffffff"
     id="base"
     showgrid="false"
     inkscape:zoom="0.70710678"
     inkscape:cx="1226.4048"
     inkscape:cy="1006.9483"
     inkscape:window-x="0"
     inkscape:window-y="0"
     inkscape:current-layer="svg2"
     showguides="true"
     inkscape:guide-bbox="true" />
  <defs
     id="defs5">
    <linearGradient
       id="linearGradient2419">
      <stop
         offset="0"
         style="stop-color: rgb(190, 63, 192); stop-opacity: 0;"
         id="stop2421" />
      <stop
         offset="0.0462063"
         style="stop-color: rgb(255, 0, 0); stop-opacity: 1;"
         id="stop2423" />
      <stop
         offset="0.23877743"
         style="stop-color: rgb(255, 255, 0); stop-opacity: 1;"
         id="stop2425" />
      <stop
         offset="0.41745287"
         style="stop-color: rgb(0, 255, 0); stop-opacity: 1;"
         id="stop2427" />
      <stop
         offset="0.58527273"
         style="stop-color: rgb(0, 255, 255); stop-opacity: 1;"
         id="stop2429" />
      <stop
         offset="0.947972"
         style="stop-color: rgb(0, 0, 255); stop-opacity: 1;"
         id="stop2431" />
      <stop
         offset="1"
         style="stop-color: rgb(190, 63, 191); stop-opacity: 0;"
         id="stop2433" />
    </linearGradient>
    <inkscape:perspective
       sodipodi:type="inkscape:persp3d"
       inkscape:vp_x="0 : 744.09448 : 1"
       inkscape:vp_y="0 : 1000 : 0"
       inkscape:vp_z="2104.7244 : 744.09448 : 1"
       inkscape:persp3d-origin="1052.3622 : 496.06299 : 1"
       id="perspective121" />
    <linearGradient
       id="linearGradient3951">
      <stop
         id="stop3953"
         style="stop-color: rgb(190, 63, 192); stop-opacity: 0;"
         offset="0" />
      <stop
         id="stop3955"
         style="stop-color: rgb(255, 0, 0); stop-opacity: 1;"
         offset="0.06813932" />
      <stop
         id="stop3957"
         style="stop-color: rgb(255, 255, 0); stop-opacity: 1;"
         offset="0.23877743" />
      <stop
         id="stop3959"
         style="stop-color: rgb(0, 255, 0); stop-opacity: 1;"
         offset="0.41745287" />
      <stop
         id="stop3961"
         style="stop-color: rgb(0, 255, 255); stop-opacity: 1;"
         offset="0.58527273" />
      <stop
         id="stop3963"
         style="stop-color: rgb(0, 0, 255); stop-opacity: 1;"
         offset="0.92324346" />
      <stop
         id="stop3965"
         style="stop-color: rgb(190, 63, 191); stop-opacity: 0;"
         offset="1" />
    </linearGradient>
    <linearGradient
       x1="235.60229"
       y1="228.13962"
       x2="435.38458"
       y2="227.16734"
       id="linearGradient3380"
       xlink:href="#linearGradient3951"
       gradientUnits="userSpaceOnUse" />
    <filter
       height="1.4143475"
       y="-0.20717376"
       width="1.1689218"
       x="-0.084460877"
       id="filter3615">
      <feGaussianBlur
         id="feGaussianBlur3617"
         stdDeviation="7.5456705"
         inkscape:collect="always" />
    </filter>
    <linearGradient
       x1="235.60229"
       y1="228.13962"
       x2="435.38458"
       y2="227.16734"
       id="linearGradient2498"
       xlink:href="#linearGradient3951"
       gradientUnits="userSpaceOnUse" />
    <linearGradient
       x1="235.60229"
       y1="228.13962"
       x2="435.38458"
       y2="227.16734"
       id="linearGradient2534"
       xlink:href="#linearGradient3951"
       gradientUnits="userSpaceOnUse" />
    <linearGradient
       x1="235.60229"
       y1="228.13962"
       x2="435.38458"
       y2="227.16734"
       id="linearGradient2553"
       xlink:href="#linearGradient3951"
       gradientUnits="userSpaceOnUse" />
    <linearGradient
       x1="235.60229"
       y1="228.13962"
       x2="435.38458"
       y2="227.16734"
       id="linearGradient2577"
       xlink:href="#linearGradient3951"
       gradientUnits="userSpaceOnUse" />
    <linearGradient
       x1="235.60229"
       y1="228.13962"
       x2="435.38458"
       y2="227.16734"
       id="linearGradient2552"
       xlink:href="#linearGradient3951"
       gradientUnits="userSpaceOnUse" />
    <linearGradient
       x1="235.60229"
       y1="228.13962"
       x2="435.38458"
       y2="227.16734"
       id="linearGradient2584"
       xlink:href="#linearGradient3951"
       gradientUnits="userSpaceOnUse" />
    <linearGradient
       inkscape:collect="always"
       xlink:href="#linearGradient3951"
       id="linearGradient2412"
       gradientUnits="userSpaceOnUse"
       x1="235.60229"
       y1="228.13962"
       x2="435.38458"
       y2="227.16734" />
    <linearGradient
       inkscape:collect="always"
       xlink:href="#linearGradient2419"
       id="linearGradient2417"
       gradientUnits="userSpaceOnUse"
       x1="232.88506"
       y1="215.17168"
       x2="435.38458"
       y2="227.16734" />
  </defs>
  <rect
     style="fill: rgb(0, 0, 0); fill-opacity: 1; stroke: none; stroke-width: 2; stroke-linecap: round; stroke-linejoin: round; stroke-miterlimit: 4; stroke-dasharray: none; stroke-opacity: 1; display: inline;"
     id="rect4039"
     y="0.0087116202"
     x="0.0098618856"
     height="1488.1716"
     width="2104.7031" />
  <path
     d="M 1309.2028,855.18132 C 1266.2283,855.18132 1202.3711,875.71858 1202.3711,975.59517 C 1202.3711,1045.2522 1232.0341,1095.056 1293.9046,1095.056 C 1336.9847,1095.056 1365.3041,1084.5845 1387.9376,1065.3229 L 1374.7939,1036.727 C 1359.0671,1049.6977 1330.3897,1060.6773 1296.4042,1060.6773 C 1273.7245,1060.6773 1246.1308,1049.3099 1244.6861,995.2785 L 1393.5622,995.2785 L 1395.1896,960.97453 C 1399.0456,879.71313 1342.5194,855.18132 1309.2028,855.18132 z M 1302.4282,887.21255 C 1335.194,887.21255 1360.4213,910.32799 1357.531,962.07467 L 1245.0938,962.07467 C 1245.4891,905.24073 1269.6725,887.21255 1302.4282,887.21255 z M 1104.7806,860.35851 L 1104.7806,1089.4953 L 1147.4616,1089.4953 L 1147.4616,860.35851 L 1104.7806,860.35851 z M 1154.5733,785.68368 C 1154.5733,800.92521 1141.8259,813.29509 1126.1191,813.29509 C 1110.4125,813.29509 1097.6651,800.92521 1097.6651,785.68368 C 1097.6651,770.44215 1110.4125,758.07229 1126.1191,758.07229 C 1141.8259,758.07229 1154.5733,770.44215 1154.5733,785.68368 z M 1483.1855,876.55795 L 1480.3572,860.38875 L 1446.5905,860.38875 L 1446.5905,1089.5257 L 1489.2716,1089.5257 L 1489.2716,928.49164 C 1489.2716,892.26239 1540.7494,884.69316 1574.7071,895.3467 L 1574.7071,860.27215 C 1537.1206,852.31713 1502.913,864.2755 1483.1855,876.55795 z M 1613.1195,869.97606 L 1627.1486,901.23071 C 1657.6456,886.3426 1717.3348,876.42935 1717.9406,925.50525 L 1718.2414,949.89572 C 1636.553,938.39103 1577.7491,964.60303 1577.7491,1014.361 C 1577.7491,1063.9222 1604.0136,1095.4696 1652.6389,1095.4696 C 1676.641,1095.4696 1708.1562,1086.8038 1723.9714,1073.9942 L 1727.5283,1090.1008 L 1761.5151,1090.1008 L 1761.5151,929.00769 C 1761.5151,850.23003 1680.0472,841.43102 1613.1195,869.97606 z M 1718.4387,980.8496 L 1718.4387,1023.5309 C 1718.4387,1046.1983 1697.7111,1060.21 1660.3836,1060.21 C 1632.5385,1060.21 1619.6398,1044.1444 1619.6398,1018.196 C 1619.6398,989.6422 1646.9298,974.71369 1718.4387,980.8496 z M 472.67781,860.35851 L 472.67781,997.8406 C 472.67781,1044.983 488.14987,1095.4781 553.25784,1095.4781 C 580.26519,1095.4781 601.15366,1089.4356 627.55459,1074.4245 L 630.44491,1089.112 L 664.74281,1089.112 L 664.74281,860.35851 L 622.06169,860.35851 L 621.50272,1026.0423 C 621.50272,1043.4368 599.62407,1059.4844 558.84687,1059.4844 C 521.52777,1059.4844 515.35892,1025.8361 515.35892,991.3326 L 515.35892,860.35851 L 472.67781,860.35851 z M 760.77784,876.12795 L 757.57707,860.38875 L 723.98545,860.38875 L 723.98545,1089.5257 L 766.66656,1089.5257 L 766.86385,926.73297 C 766.86385,885.80073 862.30386,870.64093 862.30386,918.19846 L 862.30386,1089.5257 L 904.78708,1089.5257 L 905.18227,924.432 C 905.18227,882.7062 1000.4243,871.43421 1000.4243,918.96542 L 1000.6223,1089.5257 L 1043.3033,1089.5257 L 1043.1054,926.73297 C 1043.1054,832.75138 917.47639,848.23685 889.83788,878.87351 C 860.60038,841.30945 792.28601,855.94082 760.77784,876.12795 z M 245.38015,725.56082 L 245.38015,1089.112 L 431.32014,1089.112 L 431.32014,1053.118 L 288.06127,1053.118 L 288.06127,725.56082 L 245.38015,725.56082 z"
     id="path2704"
     style="fill:#ffffff;fill-opacity:1;fill-rule:evenodd;stroke:none;stroke-width:6.74700022;stroke-linecap:butt;stroke-linejoin:miter;stroke-miterlimit:4;stroke-dasharray:none;stroke-opacity:1;display:inline" />
  <path
     d="M 249.53437,396.23691 L 249.53437,405.4384 L 701.99319,776.56497 L 1322.0889,466.78162 L 1322.0889,459.79532 C 1088.349,338.13238 1054.298,320.39699 881.01074,230.14163 C 632.16576,295.58422 531.91306,321.95729 249.53437,396.23691 z"
     id="path3715"
     style="fill:#ffffff;fill-opacity:1;fill-rule:evenodd;stroke:none;stroke-width:1px;stroke-linecap:butt;stroke-linejoin:miter;stroke-opacity:1;display:inline" />
  <path
     d="M 318.47175,273.20824 C 214.69984,179.59117 200.76442,194.63239 316.48989,289.56737 C 489.99025,200.23053 481.32029,189.26534 318.47175,273.20824 z"
     transform="matrix(5.7250572,0,0,5.452728,-1120.4894,-756.69875)"
     id="path2478"
     style="opacity:0.84536096999999999;fill:url(#linearGradient2417);fill-opacity:1;fill-rule:nonzero;stroke:none;stroke-width:11;stroke-linecap:square;stroke-linejoin:round;stroke-miterlimit:4;stroke-dasharray:none;stroke-opacity:1;display:inline;filter:url(#filter3615)"
     sodipodi:nodetypes="ccc" />
  <path
     d="M 1467.8043,219.22291 L 128.40787,218.49873 L 127.84413,395.56246 L 249.43962,394.90312 C 448.40502,562.73805 541.68919,621.26413 716.39,667.53972 C 941.38663,665.24559 1071.543,582.49263 1321.9939,458.46153 L 1467.6607,460.44441 L 1467.8043,219.22291 z M 871.86092,252.10969 C 875.2897,251.89966 878.42356,252.90891 882.23759,255.00646 L 911.57852,270.51267 C 915.19732,272.50259 915.29806,275.86818 911.57852,276.81739 L 874.18697,287.55245 C 867.95241,289.14356 862.46433,288.54469 858.80088,286.53006 L 828.74436,269.83108 C 824.69729,267.60566 825.35966,264.27763 829.63862,263.18557 L 868.28274,252.79129 C 869.51997,252.47564 870.71818,252.17971 871.86092,252.10969 z M 970.61829,303.39946 C 973.78983,303.47912 976.8316,304.88522 980.63711,306.97781 L 1012.6619,323.8472 C 1017.3158,326.40617 1017.2431,329.97291 1014.6296,331.00392 L 976.5225,343.78375 C 969.8431,345.48833 964.70602,345.15108 958.81027,341.90938 L 926.78603,324.188 C 922.3176,321.73084 924.29508,318.15853 926.9646,316.6905 L 964.53533,304.76264 C 966.81909,303.86174 968.71574,303.35169 970.61829,303.39946 z M 1078.5001,362.35712 C 1083.3024,362.01289 1087.4318,363.15415 1091.5602,365.42429 L 1128.5945,385.02004 C 1133.751,387.85551 1133.7183,391.71316 1130.3835,393.02874 C 1117.5021,397.70931 1104.6156,402.47718 1091.7393,407.17176 C 1085.5981,409.59458 1078.4938,407.98362 1072.0594,404.44539 L 1036.9935,385.02004 C 1032.4981,382.5481 1032.5559,377.82728 1035.92,376.50015 C 1048.4694,372.08224 1060.9523,367.63504 1073.4907,363.20911 C 1075.2867,362.75075 1076.8994,362.47185 1078.5001,362.35712 z M 404.55301,378.03373 C 409.61911,377.73824 413.47918,379.06342 417.6133,382.12328 C 426.65804,388.90005 435.29235,395.19119 443.91258,401.54864 C 450.28285,406.26519 448.70388,411.28503 443.37614,412.79489 L 384.33638,430.00508 C 374.14183,432.95986 366.20843,431.5921 359.82596,426.08593 C 351.50768,419.22312 343.28334,412.29913 334.77882,405.12699 C 330.55837,401.01083 334.83744,396.08004 341.21951,394.39192 L 399.00685,378.88572 C 401.00673,378.4416 402.86429,378.1322 404.55301,378.03373 z M 1196.2218,424.72275 C 1201.1172,424.30294 1206.1953,425.96089 1211.0708,428.6419 L 1249.1785,448.57845 C 1254.3122,451.40138 1256.1551,456.22563 1252.3989,458.29113 C 1240.0247,464.34922 1227.9557,470.14711 1216.0802,475.84211 C 1210.1857,478.16764 1204.1108,477.45377 1196.2218,473.11574 L 1157.3984,451.64561 C 1151.7987,448.56635 1151.161,443.67824 1154.715,441.08094 C 1166.8006,436.05614 1178.9595,431.01411 1191.3909,425.91553 C 1192.9631,425.2955 1194.59,424.86266 1196.2218,424.72275 z M 504.38353,451.13441 C 510.5334,450.91658 514.15564,452.91784 519.59102,456.24635 C 529.40206,463.11848 538.8839,469.67905 548.21632,476.01251 C 556.03733,481.89344 553.91104,486.24287 547.85851,488.45155 L 489.53444,508.21771 C 478.39348,511.71263 469.87286,509.89458 462.3404,504.46896 C 452.77897,497.76056 443.22843,490.87191 433.7151,483.8508 C 427.64527,479.41485 428.50701,474.53732 437.29326,471.07097 L 497.22721,452.15681 C 499.99814,451.57396 502.33396,451.20704 504.38353,451.13441 z M 616.55925,524.4055 C 621.62078,524.46249 625.90026,525.87409 630.33488,528.32466 C 641.34991,534.87759 652.41359,541.37222 663.61181,547.75001 C 670.74753,552.12223 667.66916,558.48917 662.35974,560.52985 C 644.74773,566.361 627.12828,572.20857 609.40291,577.91043 C 598.84705,581.18687 590.05679,581.0012 580.06197,575.86565 C 568.66739,570.01106 557.28997,564.16399 546.60586,557.80348 C 539.69571,553.68935 541.27468,547.5969 549.11058,545.02365 C 568.36625,538.63909 587.37804,532.15389 606.3612,525.76869 C 610.25252,524.90644 613.5221,524.37131 616.55925,524.4055 z M 741.61577,596.6542 C 747.06488,596.8168 751.86192,598.79489 758.07532,602.10693 C 769.58728,607.95259 788.18572,614.66867 800.47681,620.8507 C 806.07427,623.66589 807.25758,626.47415 797.6143,630.05218 C 787.97101,633.63021 767.30814,636.42894 749.12991,638.74248 C 738.29581,640.12136 729.64467,639.822 721.04161,637.37929 C 705.02405,632.83127 691.76479,626.17523 679.1771,620.5099 C 670.91126,616.78962 673.64154,611.00045 678.99791,609.77483 C 699.3173,605.12583 713.80571,603.15997 730.70265,598.35818 C 734.78635,597.19762 738.34676,596.55665 741.61577,596.6542 z"
     id="path3707"
     style="fill:#000000;fill-opacity:1;fill-rule:evenodd;stroke:none;stroke-width:1px;stroke-linecap:butt;stroke-linejoin:miter;stroke-opacity:1;display:inline" />
  <g
     transform="matrix(1.2378069,0,0,1.1915367,906.74403,614.4407)"
     id="g2691"
     style="fill:#ffffff;display:inline">
    <path
       d="M 758.89333,337.83125 C 740.86457,337.83125 733.76686,351.18193 733.76686,369.0479 C 733.76686,386.91211 740.44303,400.26454 758.60841,400.26454 C 777.05902,400.26454 784.03761,386.91153 784.03761,369.0479 C 784.03759,351.18427 777.20784,337.83125 758.89333,337.83125 z M 758.89333,346.14739 C 772.79604,346.14739 773.72703,360.14258 773.72703,369.0479 C 773.727,379.66533 772.23951,391.36076 758.89333,391.36076 C 745.26142,391.36076 744.32675,377.95204 744.32675,369.0479 C 744.32675,360.14376 744.70489,346.14739 758.89333,346.14739 z"
       id="path3257"
       style="fill:#ffffff;fill-opacity:1;fill-rule:evenodd;stroke:none;stroke-width:6.74700022;stroke-linecap:butt;stroke-linejoin:miter;stroke-miterlimit:4;stroke-dasharray:none;stroke-opacity:1;display:inline" />
    <path
       d="M 724.60832,393.06061 C 724.60832,397.03718 721.38094,400.26454 717.40436,400.26454 C 713.42778,400.26454 710.20039,397.03718 710.20039,393.06061 C 710.20039,389.08402 713.42778,385.85665 717.40436,385.85665 C 721.38094,385.85665 724.60832,389.08402 724.60832,393.06061 z"
       id="path2467"
       style="fill:#ffffff;fill-opacity:1;fill-rule:evenodd;stroke:none;stroke-width:6.74700022;stroke-linecap:butt;stroke-linejoin:miter;stroke-miterlimit:4;stroke-dasharray:none;stroke-opacity:1;display:inline" />
    <path
       d="M 805.51763,343.36247 L 804.80151,339.14386 L 796.25251,339.14386 L 796.25251,398.92673 L 807.05848,398.92673 L 807.05848,356.91221 C 807.05848,347.45983 820.09157,345.485 828.68894,348.26455 L 828.68894,339.11345 C 819.17281,337.03793 810.51218,340.15794 805.51763,343.36247 z"
       id="path2463"
       style="fill:#ffffff;fill-opacity:1;fill-rule:evenodd;stroke:none;stroke-width:6.74700022;stroke-linecap:butt;stroke-linejoin:miter;stroke-miterlimit:4;stroke-dasharray:none;stroke-opacity:1;display:inline" />
    <path
       d="M 857.05904,337.83125 C 839.03028,337.83125 831.93259,351.18193 831.93259,369.0479 C 831.93259,386.91211 838.60877,400.26454 856.77413,400.26454 C 862.80996,400.26454 868.99063,398.42684 871.39412,394.4949 L 871.39412,405.41545 C 871.39412,418.53019 850.20501,415.70512 841.95326,412.44723 L 838.45651,420.5092 C 856.00921,426.39703 882.20333,427.20197 882.20333,404.1398 L 882.20333,339.14901 L 873.65571,339.14901 L 872.72561,343.23104 C 868.99195,339.82641 863.89315,337.83125 857.05904,337.83125 z M 857.05904,346.14739 C 865.9452,346.14739 871.39412,350.69648 871.39412,356.72036 L 871.39412,379.66469 C 871.39412,386.10385 865.8175,391.36076 857.05904,391.36076 C 843.42714,391.36076 842.49247,377.95204 842.49247,369.0479 C 842.49248,360.14376 842.87062,346.14739 857.05904,346.14739 z"
       id="path3260"
       style="fill:#ffffff;fill-opacity:1;fill-rule:evenodd;stroke:none;stroke-width:6.74700022;stroke-linecap:butt;stroke-linejoin:miter;stroke-miterlimit:4;stroke-dasharray:none;stroke-opacity:1;display:inline" />
  </g>
  <path
     style="font-size:144px;font-style:normal;font-variant:normal;font-weight:normal;font-stretch:normal;text-align:start;line-height:100%;text-anchor:start;fill:#ffffff;fill-opacity:1;stroke:none;stroke-width:1px;stroke-linecap:butt;stroke-linejoin:miter;stroke-opacity:1;font-family:AlYarmook"
     d="M 781.78095,1193.0722 L 781.78095,1198.8911 L 733.35998,1198.8911 C 733.81784,1207.0804 735.99277,1213.3303 739.88479,1217.6406 C 743.81492,1221.9077 749.27134,1224.0413 756.25405,1224.0413 C 760.29863,1224.0413 764.2097,1223.4809 767.98728,1222.3602 C 771.8029,1221.2397 775.58041,1219.5586 779.31983,1217.3173 L 779.31983,1228.567 C 775.54225,1230.3774 771.66934,1231.7566 767.70109,1232.7049 C 763.73274,1233.6532 759.70721,1234.1273 755.62447,1234.1273 C 745.39842,1234.1273 737.29011,1230.7653 731.29953,1224.0413 C 725.34704,1217.3173 722.37082,1208.2226 722.37083,1196.7573 C 722.37082,1184.9044 725.19442,1175.5079 730.84163,1168.5684 C 736.52698,1161.5858 744.17741,1158.0944 753.79294,1158.0944 C 762.41634,1158.0944 769.22731,1161.241 774.22592,1167.534 C 779.26254,1173.7838 781.78089,1182.2966 781.78095,1193.0722 M 771.24967,1189.5809 C 771.1733,1183.0725 769.55164,1177.8785 766.38467,1173.9993 C 763.25577,1170.1202 759.09669,1168.1805 753.90742,1168.1804 C 748.03123,1168.1805 743.31888,1170.0554 739.77032,1173.8053 C 736.25988,1177.5552 734.23757,1182.8353 733.7034,1189.6455 L 771.24967,1189.5809 M 841.24831,1170.8313 L 841.24831,1131.6511 L 851.77959,1131.6511 L 851.77959,1232.2522 L 841.24831,1232.2522 L 841.24831,1221.3904 C 839.03515,1225.7007 836.23063,1228.9119 832.83473,1231.024 C 829.4769,1233.0928 825.43228,1234.1273 820.70088,1234.1273 C 812.95502,1234.1273 806.64008,1230.6359 801.75602,1223.6533 C 796.91011,1216.6708 794.48715,1207.4898 794.48716,1196.1109 C 794.48715,1184.7318 796.91011,1175.551 801.75602,1168.5684 C 806.64008,1161.5858 812.95502,1158.0944 820.70088,1158.0944 C 825.43228,1158.0944 829.4769,1159.1506 832.83473,1161.2624 C 836.23063,1163.3316 839.03515,1166.521 841.24831,1170.8313 M 805.36185,1196.1109 C 805.36183,1204.8607 806.94533,1211.7355 810.11237,1216.7354 C 813.3175,1221.6921 817.70553,1224.1706 823.27646,1224.1706 C 828.84731,1224.1706 833.23533,1221.6921 836.44054,1216.7354 C 839.64566,1211.7355 841.24825,1204.8607 841.24831,1196.1109 C 841.24825,1187.3611 839.64566,1180.5078 836.44054,1175.5509 C 833.23533,1170.5511 828.84731,1168.0511 823.27646,1168.0511 C 817.70553,1168.0511 813.3175,1170.5511 810.11237,1175.5509 C 806.94533,1180.5078 805.36183,1187.3611 805.36185,1196.1109 M 873.47171,1159.84 L 884.00299,1159.84 L 884.00299,1232.2522 L 873.47171,1232.2522 L 873.47171,1159.84 M 873.47171,1131.6511 L 884.00299,1131.6511 L 884.00299,1146.7155 L 873.47171,1146.7155 L 873.47171,1131.6511 M 916.39809,1139.2803 L 916.39809,1159.84 L 938.09022,1159.84 L 938.09022,1169.0857 L 916.39809,1169.0857 L 916.39809,1208.3951 C 916.39807,1214.3 917.10398,1218.0932 918.51579,1219.7741 C 919.96572,1221.4551 922.88472,1222.2957 927.27277,1222.2957 L 938.09022,1222.2957 L 938.09022,1232.2522 L 927.27277,1232.2522 C 919.14535,1232.2522 913.5363,1230.5498 910.44565,1227.1447 C 907.35493,1223.6964 905.80957,1217.4466 905.80959,1208.3951 L 905.80959,1169.0857 L 898.08283,1169.0857 L 898.08283,1159.84 L 905.80959,1159.84 L 905.80959,1139.2803 L 916.39809,1139.2803 M 1015.9873,1238.9763 C 1013.011,1247.5967 1010.1111,1253.2216 1007.2876,1255.8509 C 1004.4639,1258.4801 1000.6864,1259.7947 995.95499,1259.7947 L 987.54142,1259.7947 L 987.54142,1249.838 L 993.72283,1249.838 C 996.6227,1249.838 998.874,1249.0621 1000.4766,1247.5105 C 1002.0791,1245.9588 1003.8534,1242.2952 1005.7994,1236.5194 L 1007.6882,1231.0885 L 981.76067,1159.84 L 992.92153,1159.84 L 1012.9538,1216.4768 L 1032.9861,1159.84 L 1044.1471,1159.84 L 1015.9873,1238.9763 M 1083.5248,1168.1804 C 1077.8776,1168.1805 1073.4133,1170.6804 1070.1318,1175.6804 C 1066.8502,1180.637 1065.2096,1187.4473 1065.2096,1196.1109 C 1065.2096,1204.7745 1066.8311,1211.6062 1070.0745,1216.606 C 1073.356,1221.5628 1077.8394,1224.0413 1083.5248,1224.0413 C 1089.1339,1224.0413 1093.5791,1221.5414 1096.8606,1216.5414 C 1100.1421,1211.5416 1101.7828,1204.7314 1101.7828,1196.1109 C 1101.7828,1187.5335 1100.1421,1180.7449 1096.8606,1175.7449 C 1093.5791,1170.702 1089.1339,1168.1805 1083.5248,1168.1804 M 1083.5248,1158.0944 C 1092.6825,1158.0944 1099.8749,1161.4565 1105.1025,1168.1804 C 1110.3299,1174.9045 1112.9436,1184.2146 1112.9437,1196.1109 C 1112.9436,1207.9641 1110.3299,1217.2742 1105.1025,1224.0413 C 1099.8749,1230.7653 1092.6825,1234.1273 1083.5248,1234.1273 C 1074.329,1234.1273 1067.1174,1230.7653 1061.8899,1224.0413 C 1056.7007,1217.2742 1054.1059,1207.9641 1054.1059,1196.1109 C 1054.1059,1184.2146 1056.7007,1174.9045 1061.8899,1168.1804 C 1067.1174,1161.4565 1074.329,1158.0944 1083.5248,1158.0944 M 1129.2556,1203.6754 L 1129.2556,1159.84 L 1139.7869,1159.84 L 1139.7869,1203.2228 C 1139.7869,1210.076 1140.9699,1215.2269 1143.3355,1218.675 C 1145.7013,1222.0802 1149.2498,1223.7826 1153.9814,1223.7826 C 1159.6666,1223.7826 1164.15,1221.7353 1167.4316,1217.6406 C 1170.7512,1213.5458 1172.411,1207.9641 1172.4111,1200.8952 L 1172.4111,1159.84 L 1182.9423,1159.84 L 1182.9423,1232.2522 L 1172.4111,1232.2522 L 1172.4111,1221.1319 C 1169.8544,1225.5283 1166.8783,1228.8041 1163.4823,1230.9592 C 1160.1245,1233.0712 1156.2135,1234.1273 1151.7492,1234.1273 C 1144.3848,1234.1273 1138.7949,1231.5411 1134.9793,1226.3688 C 1131.1636,1221.1964 1129.2556,1213.632 1129.2556,1203.6754 M 1155.7556,1158.0944 L 1155.7556,1158.0944 M 1241.8946,1170.9606 C 1240.7116,1170.1849 1239.4143,1169.6244 1238.0026,1169.2796 C 1236.6289,1168.8918 1235.1027,1168.6978 1233.4237,1168.6977 C 1227.4713,1168.6978 1222.8925,1170.896 1219.6873,1175.2925 C 1216.5203,1179.6458 1214.9367,1185.9171 1214.9367,1194.1065 L 1214.9367,1232.2522 L 1204.3483,1232.2522 L 1204.3483,1159.84 L 1214.9367,1159.84 L 1214.9367,1171.0899 C 1217.15,1166.6935 1220.0308,1163.4391 1223.5792,1161.3273 C 1227.1278,1159.1721 1231.4396,1158.0944 1236.5145,1158.0944 C 1237.2394,1158.0944 1238.0407,1158.1592 1238.9183,1158.2883 C 1239.7958,1158.3746 1240.7688,1158.5256 1241.8374,1158.7411 L 1241.8946,1170.9606 M 1322.8252,1131.6511 L 1322.8252,1141.5432 L 1312.7517,1141.5432 C 1308.9742,1141.5433 1306.3413,1142.4054 1304.8533,1144.1293 C 1303.4033,1145.8535 1302.6783,1148.9568 1302.6784,1153.4393 L 1302.6784,1159.84 L 1320.0206,1159.84 L 1320.0206,1169.0857 L 1302.6784,1169.0857 L 1302.6784,1232.2522 L 1292.0898,1232.2522 L 1292.0898,1169.0857 L 1282.0164,1169.0857 L 1282.0164,1159.84 L 1292.0898,1159.84 L 1292.0898,1154.7972 C 1292.0898,1146.7371 1293.7496,1140.8751 1297.0692,1137.2113 C 1300.3889,1133.5047 1305.6546,1131.6513 1312.8662,1131.6511 L 1322.8252,1131.6511 M 1368.7277,1170.9606 C 1367.5449,1170.1849 1366.2475,1169.6244 1364.8357,1169.2796 C 1363.4621,1168.8918 1361.9358,1168.6978 1360.2569,1168.6977 C 1354.3045,1168.6978 1349.7255,1170.896 1346.5205,1175.2925 C 1343.3533,1179.6458 1341.7699,1185.9171 1341.7699,1194.1065 L 1341.7699,1232.2522 L 1331.1815,1232.2522 L 1331.1815,1159.84 L 1341.7699,1159.84 L 1341.7699,1171.0899 C 1343.9829,1166.6935 1346.8638,1163.4391 1350.4124,1161.3273 C 1353.9609,1159.1721 1358.2728,1158.0944 1363.3477,1158.0944 C 1364.0726,1158.0944 1364.8738,1158.1592 1365.7515,1158.2883 C 1366.629,1158.3746 1367.602,1158.5256 1368.6705,1158.7411 L 1368.7277,1170.9606 M 1432.2015,1193.0722 L 1432.2015,1198.8911 L 1383.7806,1198.8911 C 1384.2384,1207.0804 1386.4133,1213.3303 1390.3054,1217.6406 C 1394.2356,1221.9077 1399.6919,1224.0413 1406.6746,1224.0413 C 1410.7192,1224.0413 1414.6302,1223.4809 1418.4079,1222.3602 C 1422.2235,1221.2397 1426.0011,1219.5586 1429.7405,1217.3173 L 1429.7405,1228.567 C 1425.9628,1230.3774 1422.0899,1231.7566 1418.1217,1232.7049 C 1414.1533,1233.6532 1410.1278,1234.1273 1406.045,1234.1273 C 1395.819,1234.1273 1387.7107,1230.7653 1381.7201,1224.0413 C 1375.7676,1217.3173 1372.7915,1208.2226 1372.7915,1196.7573 C 1372.7915,1184.9044 1375.6151,1175.5079 1381.2622,1168.5684 C 1386.9476,1161.5858 1394.598,1158.0944 1404.2135,1158.0944 C 1412.8369,1158.0944 1419.648,1161.241 1424.6465,1167.534 C 1429.6831,1173.7838 1432.2015,1182.2966 1432.2015,1193.0722 M 1421.6702,1189.5809 C 1421.5938,1183.0725 1419.9722,1177.8785 1416.8053,1173.9993 C 1413.6763,1170.1202 1409.5173,1168.1805 1404.3281,1168.1804 C 1398.4518,1168.1805 1393.7395,1170.0554 1390.191,1173.8053 C 1386.6805,1177.5552 1384.6582,1182.8353 1384.124,1189.6455 L 1421.6702,1189.5809 M 1504.3178,1193.0722 L 1504.3178,1198.8911 L 1455.8969,1198.8911 C 1456.3547,1207.0804 1458.5297,1213.3303 1462.4217,1217.6406 C 1466.3519,1221.9077 1471.8082,1224.0413 1478.791,1224.0413 C 1482.8356,1224.0413 1486.7466,1223.4809 1490.5242,1222.3602 C 1494.3399,1221.2397 1498.1173,1219.5586 1501.8567,1217.3173 L 1501.8567,1228.567 C 1498.0792,1230.3774 1494.2062,1231.7566 1490.238,1232.7049 C 1486.2697,1233.6532 1482.244,1234.1273 1478.1614,1234.1273 C 1467.9353,1234.1273 1459.827,1230.7653 1453.8365,1224.0413 C 1447.884,1217.3173 1444.9077,1208.2226 1444.9077,1196.7573 C 1444.9077,1184.9044 1447.7313,1175.5079 1453.3785,1168.5684 C 1459.064,1161.5858 1466.7143,1158.0944 1476.3299,1158.0944 C 1484.9533,1158.0944 1491.7642,1161.241 1496.7628,1167.534 C 1501.7994,1173.7838 1504.3177,1182.2966 1504.3178,1193.0722 M 1493.7866,1189.5809 C 1493.7103,1183.0725 1492.0885,1177.8785 1488.9215,1173.9993 C 1485.7927,1170.1202 1481.6336,1168.1805 1476.4443,1168.1804 C 1470.5682,1168.1805 1465.8558,1170.0554 1462.3072,1173.8053 C 1458.7968,1177.5552 1456.7745,1182.8353 1456.2402,1189.6455 L 1493.7866,1189.5809 M 1563.7852,1170.8313 L 1563.7852,1131.6511 L 1574.3164,1131.6511 L 1574.3164,1232.2522 L 1563.7852,1232.2522 L 1563.7852,1221.3904 C 1561.572,1225.7007 1558.7675,1228.9119 1555.3716,1231.024 C 1552.0138,1233.0928 1547.9692,1234.1273 1543.2378,1234.1273 C 1535.4918,1234.1273 1529.1769,1230.6359 1524.2929,1223.6533 C 1519.447,1216.6708 1517.0241,1207.4898 1517.0241,1196.1109 C 1517.0241,1184.7318 1519.447,1175.551 1524.2929,1168.5684 C 1529.1769,1161.5858 1535.4918,1158.0944 1543.2378,1158.0944 C 1547.9692,1158.0944 1552.0138,1159.1506 1555.3716,1161.2624 C 1558.7675,1163.3316 1561.572,1166.521 1563.7852,1170.8313 M 1527.8987,1196.1109 C 1527.8987,1204.8607 1529.4822,1211.7355 1532.6493,1216.7354 C 1535.8544,1221.6921 1540.2425,1224.1706 1545.8134,1224.1706 C 1551.3842,1224.1706 1555.7723,1221.6921 1558.9775,1216.7354 C 1562.1825,1211.7355 1563.7852,1204.8607 1563.7852,1196.1109 C 1563.7852,1187.3611 1562.1825,1180.5078 1558.9775,1175.5509 C 1555.7723,1170.5511 1551.3842,1168.0511 1545.8134,1168.0511 C 1540.2425,1168.0511 1535.8544,1170.5511 1532.6493,1175.5509 C 1529.4822,1180.5078 1527.8987,1187.3611 1527.8987,1196.1109 M 1620.8486,1168.1804 C 1615.2015,1168.1805 1610.737,1170.6804 1607.4556,1175.6804 C 1604.1742,1180.637 1602.5334,1187.4473 1602.5334,1196.1109 C 1602.5334,1204.7745 1604.1552,1211.6062 1607.3984,1216.606 C 1610.6798,1221.5628 1615.1633,1224.0413 1620.8486,1224.0413 C 1626.4577,1224.0413 1630.903,1221.5414 1634.1845,1216.5414 C 1637.4659,1211.5416 1639.1067,1204.7314 1639.1067,1196.1109 C 1639.1067,1187.5335 1637.4659,1180.7449 1634.1845,1175.7449 C 1630.903,1170.702 1626.4577,1168.1805 1620.8486,1168.1804 M 1620.8486,1158.0944 C 1630.0063,1158.0944 1637.1988,1161.4565 1642.4264,1168.1804 C 1647.6538,1174.9045 1650.2676,1184.2146 1650.2676,1196.1109 C 1650.2676,1207.9641 1647.6538,1217.2742 1642.4264,1224.0413 C 1637.1988,1230.7653 1630.0063,1234.1273 1620.8486,1234.1273 C 1611.6529,1234.1273 1604.4412,1230.7653 1599.2138,1224.0413 C 1594.0244,1217.2742 1591.4299,1207.9641 1591.4299,1196.1109 C 1591.4299,1184.2146 1594.0244,1174.9045 1599.2138,1168.1804 C 1604.4412,1161.4565 1611.6529,1158.0944 1620.8486,1158.0944 M 1717.5762,1173.7408 C 1720.2089,1168.3961 1723.3568,1164.4522 1727.0199,1161.9091 C 1730.683,1159.3661 1734.9947,1158.0944 1739.9551,1158.0944 C 1746.6326,1158.0944 1751.7837,1160.7454 1755.4085,1166.0468 C 1759.0334,1171.3055 1760.8458,1178.8053 1760.8459,1188.5464 L 1760.8459,1232.2522 L 1750.2574,1232.2522 L 1750.2574,1188.9343 C 1750.2573,1181.9948 1749.1698,1176.8442 1746.995,1173.482 C 1744.8199,1170.1202 1741.5003,1168.439 1737.0361,1168.439 C 1731.5797,1168.439 1727.2679,1170.4865 1724.101,1174.5811 C 1720.9338,1178.676 1719.3505,1184.2577 1719.3505,1191.3265 L 1719.3505,1232.2522 L 1708.762,1232.2522 L 1708.762,1188.9343 C 1708.762,1181.9518 1707.6744,1176.801 1705.4995,1173.482 C 1703.3245,1170.1202 1699.9667,1168.439 1695.4262,1168.439 C 1690.0459,1168.439 1685.7724,1170.508 1682.6054,1174.646 C 1679.4385,1178.7405 1677.8549,1184.3008 1677.8549,1191.3265 L 1677.8549,1232.2522 L 1667.2665,1232.2522 L 1667.2665,1159.84 L 1677.8549,1159.84 L 1677.8549,1171.0899 C 1680.2587,1166.6504 1683.1395,1163.3745 1686.4974,1161.2624 C 1689.8553,1159.1506 1693.8426,1158.0944 1698.4596,1158.0944 C 1703.1147,1158.0944 1707.0639,1159.4307 1710.3073,1162.1031 C 1713.5888,1164.7754 1716.0116,1168.6546 1717.5762,1173.7408"
     id="flowRoot2554" />
</svg>
