<?xml version="1.0" encoding="UTF-8" standalone="no"?>
<!-- Created with Inkscape (http://www.inkscape.org/) -->

<svg
   xmlns:dc="http://purl.org/dc/elements/1.1/"
   xmlns:cc="http://creativecommons.org/ns#"
   xmlns:rdf="http://www.w3.org/1999/02/22-rdf-syntax-ns#"
   xmlns:svg="http://www.w3.org/2000/svg"
   xmlns="http://www.w3.org/2000/svg"
   xmlns:sodipodi="http://sodipodi.sourceforge.net/DTD/sodipodi-0.dtd"
   xmlns:inkscape="http://www.inkscape.org/namespaces/inkscape"
   width="1523.6221"
   height="1087.7953"
   id="svg3325"
   version="1.1"
   inkscape:version="0.48.1 r9760"
   sodipodi:docname="backcover.svg"
   enable-background="new">
  <sodipodi:namedview
     id="base"
     pagecolor="#ffffff"
     bordercolor="#666666"
     borderopacity="1.0"
     inkscape:pageopacity="1"
     inkscape:pageshadow="2"
     inkscape:zoom="0.37720421"
     inkscape:cx="164.3376"
     inkscape:cy="532.3579"
     inkscape:document-units="mm"
     inkscape:current-layer="layer1"
     showgrid="false"
     units="mm"
     inkscape:window-width="1680"
     inkscape:window-height="980"
     inkscape:window-x="0"
     inkscape:window-y="22"
     inkscape:window-maximized="1"
     inkscape:snap-bbox="true"
     inkscape:bbox-nodes="true"
     showguides="false"
     inkscape:guide-bbox="true"
     inkscape:snap-page="true"
     inkscape:snap-object-midpoints="true"
     inkscape:snap-center="false"
     inkscape:snap-bbox-midpoints="true"
     inkscape:snap-bbox-edge-midpoints="true">
    <sodipodi:guide
       id="guide4410"
       position="1323.6204,1020.3653"
       orientation="1,0" />
    <sodipodi:guide
       id="guide4412"
       position="1154.6728,1016.9291"
       orientation="0,1" />
    <sodipodi:guide
       id="guide4606"
       position="1456.4944,806.10233"
       orientation="1,0" />
    <sodipodi:guide
       id="guide4608"
       position="1456.4944,806.10233"
       orientation="0,1" />
    <sodipodi:guide
       id="guide4638"
       position="67.127724,70.866211"
       orientation="1,0" />
    <sodipodi:guide
       id="guide4640"
       position="1505.9055,1070.0788"
       orientation="0,1" />
    <sodipodi:guide
       id="guide4642"
       position="1505.9055,1087.7953"
       orientation="1,0" />
    <sodipodi:guide
       id="guide4644"
       position="17.716536,1070.0788"
       orientation="1,0" />
    <sodipodi:guide
       id="guide4646"
       position="17.716536,17.716553"
       orientation="0,1" />
    <sodipodi:guide
       id="guide4650"
       position="761.81104,1087.7953"
       orientation="1,0" />
    <sodipodi:guide
       id="guide4665"
       position="832.67718,562.02977"
       orientation="1,0" />
    <sodipodi:guide
       id="guide4667"
       position="690.94489,562.02977"
       orientation="1,0" />
  </sodipodi:namedview>
  <defs
     id="defs3327" />
  <metadata
     id="metadata3330">
    <rdf:RDF>
      <cc:Work
         rdf:about="">
        <dc:format>image/svg+xml</dc:format>
        <dc:type
           rdf:resource="http://purl.org/dc/dcmitype/StillImage" />
        <dc:title></dc:title>
      </cc:Work>
    </rdf:RDF>
  </metadata>
  <g
     inkscape:label="base"
     id="layer2"
     inkscape:groupmode="layer"
     sodipodi:insensitive="true">
    <g
       transform="translate(-173.99813,3.4361954)"
       id="g4416">
      <g
         id="g4396">
        <rect
           style="color:#000000;fill:#000000;fill-opacity:1;fill-rule:nonzero;stroke:none;stroke-width:0.35433072;marker:none;visibility:visible;display:inline;overflow:visible;enable-background:accumulate"
           id="rect174724"
           width="132.87401"
           height="210.82677"
           x="1497.6185"
           y="67.429993" />
        <path
           id="path174730"
           d="m 1511.6181,80.963085 0,39.064275 0,0.34028 19.9405,0 0,-6.87367 -13.0667,0 0,-32.530885 -6.8738,0 z m 23.7177,0 0,39.404555 6.8736,0 0,-39.404555 -6.8736,0 z m 34.8787,0 0,0.03408 0,39.370535 6.8398,0 0,-16.46961 c 1.6419,0.0399 3.3908,-0.0729 5.002,0 l 5.3084,16.46961 7.2481,0 -5.7849,-17.83073 c 3.2586,-1.57408 5.7168,-4.674886 5.7168,-10.140389 0,-8.927756 -5.4716,-11.433445 -12.3522,-11.433445 l -11.978,0 z m 26.7122,0 0,39.404555 19.9405,0 0,-6.87367 -13.0669,0 0,-9.59593 7.5543,0 0,-6.873687 -7.5543,0 0,-9.18759 13.0669,0 0,-6.873678 -19.9405,0 z m -50.9402,0.03408 0,32.462825 0,6.90771 6.8737,0 2.2459,0 c 5.9959,0 12.4543,-2.77785 12.4543,-11.70567 0,-5.57493 -2.1326,-8.738881 -5.4105,-10.310529 1.9988,-1.600835 3.3348,-3.96305 3.3348,-7.350072 0,-6.502135 -3.9677,-10.004264 -9.5619,-10.004264 l -9.9363,0 z m 6.8737,6.873678 0.2723,0 1.5313,0 c 1.773,0.05619 4.0152,0.5049 4.0152,3.130586 0,3.500845 -3.9414,3.198642 -5.6827,3.198642 -0.044,0 -0.089,0.02613 -0.1361,0.03408 l 0,-6.363256 z m 24.1941,0 5.1382,0 c 1.5452,0 5.5125,-0.0087 5.5125,4.525738 0,4.290243 -3.9075,4.661852 -5.6487,4.661852 l 0,-0.03408 -5.002,0 0,-9.153562 z m -24.1941,16.027247 2.2119,0 c 0.053,0.0121 0.09,0.0341 0.1362,0.0341 1.5454,0 5.5464,0.19532 5.5464,4.72991 0,4.29011 -3.9075,4.79796 -5.6486,4.79796 l -2.2459,0 0,-9.5619 z m -30.1828,20.07659 c -8.9278,0 -11.4335,5.47157 -11.4335,12.3522 0,0.10948 0,0.20303 0,0.30625 l 0,15.41474 c 0,0.10333 0,0.19693 0,0.30625 0,6.88071 2.5057,12.35221 11.4335,12.35221 3.3253,0 5.761,-0.8754 7.5201,-2.31392 l 0.1361,1.63335 3.8452,0 0,-11.77372 0,-6.5334 0,-2.31392 -11.4334,0 0,6.87369 4.5598,0 0,1.97363 c 0,1.7411 -0.3378,5.64866 -4.6278,5.64866 -4.5351,0 -4.5258,-4.00121 -4.5258,-5.54658 l 0,-16.02724 c 0,-1.54526 -0.011,-5.54658 4.5258,-5.54658 4.29,0 4.6278,3.90755 4.6278,5.64866 l 6.8736,0 c 0,-5.99589 -2.5737,-12.45428 -11.5014,-12.45428 z m 54.4108,0 c -8.9278,0 -11.4511,5.47161 -11.4334,12.3522 0.024,9.19257 0.034,18.46881 0.034,27.69888 l 6.8736,0 0,-9.5619 9.1536,0 0,9.5619 6.8737,0 0,-27.63083 c 0,-5.98688 -2.5895,-12.42025 -11.5015,-12.42025 z m -39.2343,0.68056 0,39.37052 6.8737,0 0,-16.4696 c 1.6339,-0.015 3.4194,0.0341 5.002,0.0341 l 5.3084,16.43558 7.2481,0 -5.7848,-17.83073 c 3.2585,-1.57402 5.6826,-4.67494 5.6826,-10.14038 0,-8.9278 -5.4715,-11.39942 -12.3521,-11.39942 l -11.9779,0 z m 54.6151,0 0,39.37052 6.8737,0 0,-16.4696 c 1.6404,-0.0153 3.409,0.0341 5.0021,0.0341 5.9957,-1.1e-4 12.4543,-2.60774 12.4543,-11.53553 0,-8.9278 -5.4716,-11.39942 -12.3523,-11.39942 l -11.9778,0 z m -15.3808,6.12506 c 4.2901,0 4.6278,3.90757 4.6278,5.64866 l 0,11.16123 -9.1535,0 0,-11.26331 c 0,-1.54526 -0.011,-5.54658 4.5257,-5.54658 z m -32.3606,0.74861 5.1042,0 c 1.5453,0 5.5465,-0.009 5.5465,4.52575 0,4.29008 -3.9075,4.66185 -5.6487,4.66185 l 0,-0.0341 -5.002,0 0,-9.15356 z m 54.6151,0 5.1041,0 c 1.5453,0 5.5467,-0.009 5.5467,4.52575 0,4.29008 -3.9076,4.66185 -5.6487,4.66185 l 0,-0.0341 -5.0021,0 0,-9.15356 z m -39.2686,35.42327 c -8.9277,0 -11.4333,5.47159 -11.4333,12.3522 0.1874,5.29542 -0.041,10.7564 0,16.06127 0.054,6.88041 2.5056,12.35219 11.4333,12.35219 8.9279,0 11.5016,-6.49252 11.5016,-12.4883 l 0,-2.72225 -6.8737,0 0,2.72225 c 0,1.74109 -0.3378,5.64866 -4.6279,5.64866 -4.5348,0 -4.5597,-3.96729 -4.5597,-5.51255 l 0,-16.06127 c 0,-1.54528 0.025,-5.54658 4.5597,-5.54658 4.2901,0 4.6279,3.90755 4.6279,5.64867 l 6.8737,0 c 0,-5.99579 -2.5737,-12.45429 -11.5016,-12.45429 z m 26.2697,0 c -11.4301,0 -11.4333,8.31542 -11.4333,12.3522 0,6.71293 3.8993,8.43747 6.9758,9.86816 3.0764,1.43067 9.0854,2.22818 9.0854,6.057 0,3.63393 -0.3377,5.64866 -4.6279,5.64866 -4.5348,0 -4.5256,-5.51255 -4.5256,-5.51255 l -6.9077,0 c 0,0 0,12.35219 11.4333,12.35219 11.0229,0 11.5016,-8.10388 11.5016,-12.4883 0,-5.96166 -4.7189,-8.94547 -8.4049,-10.51468 -3.6861,-1.56922 -7.6223,-1.71935 -7.6223,-5.41048 0,-3.20169 1.2206,-5.54658 4.5256,-5.54658 3.3657,0 4.6279,2.80177 4.6279,5.68269 l 6.8737,0 c 0,0 -0.4787,-12.48831 -11.5016,-12.48831 z m -75.0999,0.68056 0,39.40455 6.9077,0 0,-16.50363 9.1536,0 0,16.50363 6.8736,0 0,-39.40455 -6.8736,0 0,16.02725 -9.1536,0 0,-16.02725 -6.9077,0 z m 26.7461,0 0,39.40455 6.8396,0 0,-39.40455 -6.8396,0 z"
           style="fill:#ffffff;stroke:none"
           inkscape:connector-curvature="0" />
        <g
           transform="translate(1.5028,0)"
           id="g4391">
          <path
             inkscape:connector-curvature="0"
             id="path4382"
             style="font-size:19.2927494px;font-style:normal;font-variant:normal;font-weight:bold;font-stretch:normal;line-height:125%;letter-spacing:0px;word-spacing:0px;fill:#ffffff;fill-opacity:1;stroke:none;font-family:PropCourierSans;-inkscape-font-specification:PropCourierSans Bold"
             d="m 1594.8309,265.50448 0,-12.52587 -2.141,0.566 c -0.3773,0.0985 -0.6398,0.14767 -0.7875,0.14766 -0.3116,1e-5 -0.5824,-0.12309 -0.812,-0.36915 -0.2133,-0.24606 -0.3199,-0.54958 -0.3199,-0.91052 0,-0.36092 0.091,-0.62341 0.2707,-0.78747 0.1968,-0.18045 0.5413,-0.33631 1.0335,-0.46758 l 5.217,-1.35348 0,15.70041 -2.4608,0" />
          <path
             inkscape:connector-curvature="0"
             id="path4384"
             style="font-size:19.2927494px;font-style:normal;font-variant:normal;font-weight:bold;font-stretch:normal;line-height:125%;letter-spacing:0px;word-spacing:0px;fill:#ffffff;fill-opacity:1;stroke:none;font-family:PropCourierSans;-inkscape-font-specification:PropCourierSans Bold"
             d="m 1601.8313,265.87361 -0.443,0 c -0.443,0 -0.8285,-0.15586 -1.1567,-0.46757 -0.3116,-0.32811 -0.4675,-0.71365 -0.4675,-1.15661 0,-0.44295 0.1559,-0.82029 0.4675,-1.132 0.3282,-0.32813 0.7137,-0.49217 1.1567,-0.49219 l 0.443,0 c 0.4593,2e-5 0.8448,0.15586 1.1565,0.46758 0.3118,0.31171 0.4676,0.69725 0.4676,1.15661 0,0.45937 -0.1558,0.8449 -0.4676,1.15661 -0.3117,0.31171 -0.6972,0.46757 -1.1565,0.46757" />
          <path
             inkscape:connector-curvature="0"
             id="path4386"
             style="font-size:19.2927494px;font-style:normal;font-variant:normal;font-weight:bold;font-stretch:normal;line-height:125%;letter-spacing:0px;word-spacing:0px;fill:#ffffff;fill-opacity:1;stroke:none;font-family:PropCourierSans;-inkscape-font-specification:PropCourierSans Bold"
             d="m 1611.4024,265.50448 0,-3.39601 -6.6936,0 0,-2.04253 5.9307,-9.86812 3.2238,0 0,9.44976 c 1.0007,2e-5 1.5011,0.41016 1.5011,1.23045 0,0.78748 -0.5004,1.19763 -1.5011,1.23044 l 0,3.39601 -2.4609,0 m 0,-5.8569 0,-5.95531 -3.6913,5.95531 3.6913,0" />
        </g>
      </g>
    </g>
  </g>
  <g
     transform="translate(0,35.433025)"
     id="layer1"
     inkscape:groupmode="layer"
     inkscape:label="Layer 1">
    <flowRoot
       transform="matrix(1.3765133,0,0,1.3765133,-334.28946,-200.88485)"
       style="font-size:40px;font-style:normal;font-weight:normal;line-height:125%;letter-spacing:0px;word-spacing:0px;fill:#000000;fill-opacity:1;stroke:none;font-family:Times New Roman;-inkscape-font-specification:Times New Roman"
       id="flowRoot4122"
       xml:space="preserve"><flowRegion
         id="flowRegion4124"><rect
           y="177.00412"
           x="847.24762"
           height="776.00177"
           width="587.29663"
           id="rect4126" /></flowRegion><flowPara
         style="font-size:40px;font-style:normal;font-variant:normal;font-weight:normal;font-stretch:normal;text-align:start;line-height:125%;writing-mode:lr-tb;text-anchor:start;font-family:Univers Else;-inkscape-font-specification:Univers Else"
         id="flowPara4132">The Physical,</flowPara><flowPara
         id="flowPara3393"
         style="font-size:40px;font-style:normal;font-variant:normal;font-weight:normal;font-stretch:normal;text-align:start;line-height:125%;writing-mode:lr-tb;text-anchor:start;font-family:Univers Else;-inkscape-font-specification:Univers Else">the Digital</flowPara><flowPara
         id="flowPara3395"
         style="font-size:40px;font-style:normal;font-variant:normal;font-weight:normal;font-stretch:normal;text-align:start;line-height:125%;writing-mode:lr-tb;text-anchor:start;font-family:Univers Else;-inkscape-font-specification:Univers Else">and the Designer</flowPara></flowRoot>    <text
       sodipodi:linespacing="135%"
       id="text4283"
       y="948.72406"
       x="66.095726"
       style="font-size:40px;font-style:normal;font-weight:normal;line-height:135.00000238%;fill:#000000;fill-opacity:1;stroke:none;font-family:Bitstream Vera Sans"
       xml:space="preserve"><tspan
         style="font-size:12px;font-style:normal;font-variant:normal;font-weight:normal;font-stretch:normal;text-align:start;line-height:135.00000238%;writing-mode:lr-tb;text-anchor:start;fill:#000000;fill-opacity:1;font-family:Univers Else;-inkscape-font-specification:Univers Else"
         y="948.72406"
         x="66.095726"
         id="tspan4285"
         sodipodi:role="line">Libre Graphics Magazine 1.4</tspan><tspan
         style="font-size:12px;font-style:normal;font-variant:normal;font-weight:normal;font-stretch:normal;text-align:start;line-height:135.00000238%;writing-mode:lr-tb;text-anchor:start;fill:#000000;fill-opacity:1;font-family:Univers Else;-inkscape-font-specification:Univers Else"
         id="tspan4287"
         y="964.92407"
         x="66.095726"
         sodipodi:role="line">March 2012</tspan><tspan
         style="font-size:12px;font-style:normal;font-variant:normal;font-weight:normal;font-stretch:normal;text-align:start;line-height:135.00000238%;writing-mode:lr-tb;text-anchor:start;fill:#000000;fill-opacity:1;font-family:Univers Else;-inkscape-font-specification:Univers Else"
         id="tspan4289"
         y="981.12408"
         x="66.095726"
         sodipodi:role="line">ISSN: 1925-1416</tspan><tspan
         style="font-size:12px;font-style:normal;font-variant:normal;font-weight:normal;font-stretch:normal;text-align:start;line-height:135.00000238%;writing-mode:lr-tb;text-anchor:start;fill:#000000;fill-opacity:1;font-family:Univers Else;-inkscape-font-specification:Univers Else"
         id="tspan4291"
         y="997.32404"
         x="66.095726"
         sodipodi:role="line" /></text>
  </g>
</svg>
